{
  "ui_unit": {
    "meters": "m",
    "feet": "ft"
  },
  "ui_squareUnit": {
    "meters": "m²",
    "feet": "ft²"
  },
  "ui_cubicUnit": {
    "meters": "m³",
    "feet": "ft³"
  },
  "ui_currency_symbol": "Currency Symbol",
  "ui_percent": "%",
  "ui_empty": "",
  "ui_residentsPerHectare": {
    "short": "Res./ha",
    "long": "Residents/hectare"
  },
  "ui_file": "File",
  "ui_open": "Open…",
  "ui_save": "Save",
  "ui_saveAs": "Save As…",
  "ui_import": "Import…",
  "ui_exportUrbanDesignControlValues": "Export Urban Design Control Values…",
  "ui_tools": "Tools",
  "ui_options": "Options",
  "ui_translation": "Translation",
  "ui_customize_ui_text": "Customize UI Text",
  "ui_find_text_to_edit": "Find Text to Translate/Edit",
  "ui_change_text_to": "Change Text to",
  "ui_buildingHeight": "Building Height",
  "ui_built_up_area": "Built-up Area",
  "ui_language": "Language",
  "ui_saveDefaultSettings": {
    "short": "Save Default Settings",
    "long": "This will set all your current settings as defaults, which are used every time you initialize new Modelur model."
  },
  "ui_help": "Help",
  "ui_plotParameters": "Plot Parameters",
  "ui_plotArea": "Plot Area",
  "ui_allowed_FAR": {
    "short": "Maximum Permitted FAR",
    "long": "Maximum Permitted Floor Area Ratio"
  },
  "ui_allowed_site_coverage": {
    "short": "Max. Permitted Site Coverage",
    "long": "Maximum Permitted Site Coverage"
  },
  "ui_allowed_building_height": {
    "short": "Max. Permitted Building Height",
    "long": "Maximum Permitted Building Height"
  },
  "ui_permitted_FAR": "Permitted FAR",
  "ui_permitted_building_height": "Permitted Building Height",
  "ui_min": "MIN",
  "ui_max": "MAX",
  "ui_defaultBuildingParameters": "Default Building Parameters",
  "ui_numberOfStoreys": "Number of Storeys",
  "ui_firstStoreyHeight": "First Storey Height",
  "ui_otherStoreysHeight": "Other Storeys Height",
  "ui_minDistanceBetweenBuildings": {
    "short": "Min. Dist. Between Buildings",
    "long": "Minimum Distance Between Buildings"
  },
  "ui_parkingLots": "Parking Spaces",
  "ui_building": "Building",
  "ui_create": "Create",
  "ui_restoreDefault": "Restore",
  "ui_selectedBuildingParameters": "Selected Building parameters",
  "ui_editingModesOfBuilding": "Editing modes of Building",
  "ui_preserveBuiltArea": "Keep Built-up Area when scaling Buildings manually",
  "ui_survey": "Survey",
  "ui_heads_up_display": {
    "short": "Heads-Up Display",
    "long": "Open Heads-up Display settings to show Urban Control Values for last selected Building, City Block or Whole Plot."
  },
  "ui_hud_control_values": "Heads-Up Display of Control Values",
  "ui_surveyOfSelectedBuilding": "Survey of Selected Building(s)",
  "ui_basic": "Basic",
  "ui_full": "Full",
  "ui_surveyOfPlotArea": "Survey of Complete Model",
  "ui_warnings": "Warnings",
  "ui_tooLowDistanceBetweenBuildings": "Too low distance between Buildings",
  "ui_plotAreaUrbanControl": "Urban control - Plot Area",
  "ui_floorSpaceIndex": "Floor Area Ratio",
  "ui_grossFloorAreaUnderground": {
    "short": "Underground GFA",
    "long": "Underground Gross Floor Area"
  },
  "ui_expectedNumberOfParkingLotsUnderground": {
    "short": "Expected number of underground PS",
    "long": "Expected number of underground Parking Spaces"
  },
  "ui_selectedBuildingUrbanControl": {
    "short": "Urban control - Building",
    "long": "These are values of the last selected Building"
  },
  "ui_buildingVolume": "Building Volume",
  "ui_buildingEnvelope": "Envelope Area",
  "ui_warning": "Warning",
  "ui_dialogOkButton": "Close",
  "ui_dialogCancelButton": "Cancel",
  "ui_dialogApplyButton": "Apply",
  "er_modelurHasExpired": "Heads Up!<br><br>Your installed Modelur version is outdated. To continue using it, please upgrade Modelur to the latest version.<br><br>Would you like to open SketchUp Extension Manager to update Modelur now?<br><br>PS: After upgrading Modelur, we suggest you restart SketchUp.",
  "er_modelurServerUnavailable": "We were not able verify your license.<br><br>Please make sure you are online and try to reinitialize Modelur in a few moments.<br><br>If the problem persists, please contact us at %{link_support_email}.",
  "me_download_new_version": "New version of Modelur is available!<br><br>Installed version: %{current_version}<br>New version: %{latest_version}<br><br>Would you like to download and install it?",
  "me_install_modelur_via_EW_after_download": "After you have downloaded Modelur RBZ installer, please install it using SketchUp Extension Manager.<br><br>We will open it for you when you click OK button below.<br><br>Once the installation is complete, restart SketchUp for the changes to take effect.",
  "ui_minDistanceBetweenBuildingsRatio": {
    "short": "Min. Height to Distance Ratio",
    "long": "Minimum Height to Distance Ratio"
  },
  "ui_minDistanceBetweenBuildingsPercent": "Percentage of Building Height",
  "ui_percentOfUsableGrossFloorArea": {
    "short": "Per. of usable GFA",
    "long": "Percentage of usable Gross Floor Areas"
  },
  "ui_terraceFloorAreaPercent": {
    "short": "Terrace GFA percent",
    "long": "Terrace Gross Floor Area percent"
  },
  "ui_loggiaFloorAreaPercent": {
    "short": "Loggia GFA percent",
    "long": "Loggia Gross Floor Area percent"
  },
  "ui_buildingID": "Building ID",
  "ui_meters": "Meters",
  "ui_feet": "Feet",
  "ui_GFA": {
    "short": "GFA",
    "long": "Gross Floor Area"
  },
  "ui_NFA": {
    "short": "NFA",
    "long": "Net Floor Area"
  },
  "ui_GFA_included": {
    "short": "GFA Included",
    "long": "Gross Floor Area Included"
  },
  "ui_GFA_excluded": {
    "short": "GFA Excluded",
    "long": "Gross Floor Area Excluded"
  },
  "ui_NFA_included": {
    "short": "NFA Included",
    "long": "Net Floor Area Included"
  },
  "ui_NFA_excluded": {
    "short": "NFA Excluded",
    "long": "Net Floor Area Excluded"
  },
  "ui_GFA_total": {
    "short": "GFA Total",
    "long": "Gross Floor Area Total"
  },
  "ui_NFA_total": {
    "short": "NFA Total",
    "long": "Net Floor Area Total"
  },
  "ui_GA": {
    "short": "GA",
    "long": "Green Area"
  },
  "ui_parking_lot": "Parking Space",
  "ui_PL": {
    "short": "PS",
    "long": "Parking Space"
  },
  "ui_sync_land_use_panels": {
    "short": "Synchronize Land Use Panels",
    "long": "Keep Land Use Panels between Input data and Survey tab in sync."
  },
  "ui_land_use": "Land Use",
  "ui_use": "Use",
  "ui_use_color": "Use Color",
  "ui_building_type": "Building Type",
  "ui_color": "Color",
  "ui_first_unit": "Primary Unit",
  "ui_second_unit": "Secondary Unit",
  "ui_NFA_factor_internal": {
    "short": "NFA Factor Internal",
    "long": "Net Floor Area Factor Internal"
  },
  "ui_NFA_factor_terrace": {
    "short": "NFA Factor Terrace",
    "long": "Net Floor Area Factor Terrace"
  },
  "ui_NFA_factor_loggia": {
    "short": "NFA Factor Loggia",
    "long": "Net Floor Area Factor Loggia"
  },
  "ui_unit1": {
    "singular": {
      "apartment": "Apartment",
      "office": "Office",
      "room": "Room",
      "classroom": "Classroom",
      "department": "Department",
      "hall": "Hall",
      "workshop": "Workshop",
      "shop": "Shop",
      "parking_lot": "Parking Space",
      "na": "n/a"
    },
    "plural": {
      "apartment": "Apartments",
      "office": "Offices",
      "room": "Rooms",
      "classroom": "Classrooms",
      "department": "Departments",
      "hall": "Halls",
      "workshop": "Workshops",
      "shop": "Shops",
      "parking_lot": "Parking Spaces",
      "na": "n/a"
    }
  },
  "ui_unit2": {
    "singular": {
      "resident": "Resident",
      "employee": "Employee",
      "guest": "Guest",
      "student": "Student",
      "child": "Child",
      "workplace": "Workplace",
      "chair": "Chair",
      "bed": "Bed",
      "car": "Car",
      "na": "n/a"
    },
    "plural": {
      "resident": "Residents",
      "employee": "Employees",
      "guest": "Guests",
      "student": "Students",
      "child": "Children",
      "workplace": "Workplaces",
      "chair": "Chairs",
      "bed": "Beds",
      "car": "Cars",
      "na": "n/a"
    }
  },
  "ui_units": "Units",
  "ui_op_divide": "per",
  "ui_NFA_calculation": "Net Floor Area (NFA) calculation",
  "ui_units_calculation": "Units calculation",
  "ui_green_areas_calculation": "Green Areas (GA) calculation",
  "ui_parking_lots_calculation": "Parking Space (PS) calculation",
  "ui_add_new_land_use": "Add new Land Use",
  "ui_name": "Name",
  "ui_add": "Add",
  "ui_ok": "OK",
  "ui_delete": "Delete",
  "ui_cancel": "Cancel",
  "ui_delete_land_use": "Delete Land Use",
  "ui_new_name": "New name",
  "ui_land_use_delete_message": "Default land use will be assigned to the objects currently using this land use.",
  "ui_urban_control_land_use": {
    "short": "Urban control - Land Use",
    "long": "Switch to another Land Use using the dropdown below."
  },
  "ui_net_floor_area": "Net Floor Area",
  "ui_required_green_area": {
    "short": "Required GA",
    "long": "Required Green Area"
  },
  "ui_gross_plot_area": "Gross Plot Area",
  "ui_built_area_factor": "Site Coverage",
  "ui_number_of": "Number of",
  "ui_internal": "internal",
  "me_can_not_remove_default_land_use": "Land Use you are trying to delete is set as default Whole Plot Land Use.<br><br>If you still want to delete it, please set some other Land Use for the Whole Plot and try to delete it again.",
  "ui_loading_modelur": "Loading Modelur",
  "ui_initialize_modelur": "Initialize Modelur",
  "ui_create_building": "Create Building",
  "ui_toggle_built_area_visibility": {
    "short": "Show Building's Built-up Area",
    "long": "Show built-up area face at the bottom of each Modelur Building."
  },
  "ui_toggle_terraces_and_loggias": {
    "short": "Mark Terraces and Loggias",
    "long": "Apply green color to all Terraces and pink color to all Loggias."
  },
  "ui_optimize_buildings_for_GE": "Optimize Buildings for Google Earth",
  "ui_ready": "Ready",
  "ui_start_modelur_and_open_ui": "Start Modelur and open user interface.<br><br>If main Modelur User Interface is already shown, clicking this button again will reposition all visible Modelur Windows to your main Monitor.",
  "ui_convert_selected_polygon_to_modelur_building": "Create Modelur Buildings from selected polygons or closed planar edge loops. If nothing is selected, Modelur will create default Building at origin of the model.",
  "ui_layer": "Layer",
  "ui_default_building_shape": {
    "short": "Default Building Shape",
    "long": "Shape of newly created Building in case when no Face is selected."
  },
  "ui_square": "Square",
  "ui_circle": "Circle",
  "ui_L_shape": "L-Shape",
  "ui_whole_plot": "Whole Plot",
  "ui_export": "Export",
  "er_modelur_model_can_not_be_updated": "Current version of Modelur is not backward compatible with the model you are opening.<br><br>If you wish to continue to work parametrically on this model you need to downgrade Modelur to the version with which it was created or rebuild it using current version of Modelur.<br><br>In case you need further assistance, please contact Modelur support.",
  "ui_show_tutorials": {
    "short": "Video Tutorials",
    "long": "Learn Modelur step-by-step with short video tutorials that will open in your browser."
  },
  "er_building_errors_found": "Modelur found out that some Buildings are corrupted and can not be repaired automatically. They are marked with warning color (red by default).<br><br>Please recreate marked buildings if you wish to continue working on them parametrically.<br><br>If you don't see them, check hidden objects and Tags/Layers.",
  "er_objects_errors_found": "Some Modelur objects are corrupted and can not be repaired automatically. Modelur added \"Failed Loading:\" prefix to their name (see Outliner).<br><br>Please recreate renamed objects if you wish to continue working with them.<br><br>If you don't see them, check hidden objects and Tags/Layers.",
  "ui_show_status_bar": {
    "short": "Show Status Bar",
    "long": "Turn this Status Bar on or off, if you do not want to see hints and extended text for certain commands and parameters, when you hover above the text."
  },
  "ui_update_modelur_from_su_ew": {
    "short": "Update Modelur from SU EW",
    "long": "Update Modelur from Extension Warehouse"
  },
  "ui_restoreDefaults": {
    "short": "Restore Default Settings",
    "long": "Reset Modelur to default settings. Once applied, please restart SketchUp + Modelur."
  },
  "ui_set_length_of_x_coordinate": {
    "feet": "Set width of parametric map in feet",
    "meters": "Set width of parametric map in meters"
  },
  "ui_show_news": "What's new?",
  "ui_show_changelog": "Changelog",
  "ui_building_name": "Building Name",
  "ui_create_buildings_from_edges": {
    "short": "Create From Edges",
    "long": "If and how objects should be created when edges are selected."
  },
  "ui_dont_create": {
    "short": "Don't Create",
    "long": "No buildings will be created from selected edges."
  },
  "ui_one_edge": {
    "short": "From One Edge",
    "long": "Building will be created if at least one edge in edge loop is selected."
  },
  "ui_all_edges": {
    "short": "From Edge Loop",
    "long": "Building will be created only if all edges in edge loop are selected."
  },
  "ui_visit_knowledgebase": {
    "short": "Visit Knowledgebase",
    "long": "Have a question? Visit Modelur knowledgebase!"
  },
  "ui_submit_ticket": {
    "short": "Submit a Ticket",
    "long": "Report a bug or send us a feature request."
  },
  "ui_activate_modelur": "Activate Modelur",
  "ui_randomizeBuildingHeights": "Randomize Building Heights",
  "ui_absoluteNumberOfStoreys": "Absolute Number of Storeys",
  "ui_relativeNumberOfStoreys": "Relative Number of Storeys",
  "ui_place_buildings_on_terrain": "Place Buildings on Selected Terrain",
  "ui_create_mixed_use_building": "Create Complex Building",
  "ui_create_complex_building_description": "Create Complex (Mixed-use) Building from selected Modelur Buildings, or from selected polygons/closed planar edge loops.",
  "er_randomizeBuildingHeightsFailed": "Randomizing height failed because no buildings were selected. Please select buildings and press Retry or Abort operation.",
  "ui_mixed_use_ratio": "Complex Building Ratio",
  "ui_mixedUseBuilding": "Complex Building",
  "ui_remove": "Remove",
  "ui_edit": "Edit",
  "ui_create_CB_automatically": {
    "short": "Create Complex Building automatically",
    "long": "Create (or destroy) Complex (Mixed-use) Building automatically when one Modelur Building is placed on top of another (or removed from it)."
  },
  "ui_preserve_height_when_adding_CB_part": {
    "short": "Preserve building height when adding/removing parts",
    "long": "Keep Complex (Mixed-use) Building height when a new Building part is added to it or when an old one is removed from it."
  },
  "ui_adjust_parts_positions_on_CB_create": {
    "short": "Adjust Buildings when creating Complex Building",
    "long": "Adjust Building's bottom position to match the top of the Building on which it sits on."
  },
  "ui_adjust_storey_heights_on_CB_create": {
    "short": "Adjust Buildings storey heights when creating Complex Building",
    "long": "Match all storeys heights to specification of the first and other storeys heights."
  },
  "me_land_use_not_assigned": "Land Use assigned to some Buildings does not exist in this model. Where this is the case, it was replaced the default one.",
  "er_license_expired": "Heads up! Your Modelur subscription has expired.<br><br>To continue using Modelur Pro, please:<br><br>1) Enter a new license key:<br>Go to Extensions > Modelur > Update Modelur License and input your new key, or<br>2) Renew your subscription:<br>Visit our website to renew your Pro plan.<br><br>Would you like to renew your subscription now?",
  "ui_modelur_is_offline_cant_contact_license_server": "SketchUp is unable to connect to Modelur license server.<br><br>Please check your internet connection and try again. If the issue persists, please contact our support team.",
  "ui_update_license": "Update Modelur License",
  "ui_enter_your_license_key": "Enter your license key to unlock all Modelur features or to update your existing license.",
  "er_outside_licensed_network": "Your Modelur license is restricted to a specific network.<br><br>It seems you’re trying to use Modelur outside of the authorized network. To use Modelur, please connect to the internet from the local network where your license is valid (eg. office).<br><br>If you continue to experience issues, please contact your IT administrator for assistance.",
  "ui_send_request": "Send request",
  "ui_purchase_Modelur": "Purchase Modelur",
  "er_reservation_not_allowed_by_license": "Your license doesn't allow any seat reservations.<br><br>Please contact us at %{link_support_email}.",
  "er_seat_limit_reached": "Maximum number of concurrent users for your license has been reached.<br><br>You won't be able to use Modelur until someone occupying the seat releases it.<br><br>In case you see this message often, please consider purchasing additional seats.<br><br>Feel free to contact our sales team at %{link_inquiry_email} to explore your options.",
  "er_super_quota_reached": "Maximum number of concurrent users for your combined license has been reached.<br><br>You won't be able to use Modelur until someone occupying the seat releases it.<br><br>In case you see this message often, please consider purchasing additional seats.<br><br>Feel free to contact our sales team at %{link_inquiry_email} to explore your options.",
  "er_unable_to_refresh_seat_reservation": "Modelur was unable to refresh your seat reservation.<br><br>Please make sure you are connected to the Internet and try again in a few moments.<br><br>If the problem persists, please contact us at %{link_support_email}.",
  "me_license_seat_could_not_be_released": "Modelur was not able to release your license seat immediately. Please wait for a few minutes for Modelur license server to release the seat automatically, so that it can then be used by someone else.",
  "ui_primary_unit_type": "Primary Unit Type",
  "ui_secondary_unit_type": "Secondary Unit Type",
  "ui_construction_date": "Construction Year",
  "ui_demolition_date": "Demolition Year",
  "ui_current_date": "Current Date",
  "ui_min_date": "Min Date",
  "ui_max_date": "Max Date",
  "ui_development_timeline": "Development Timeline",
  "ui_user_guide": {
    "short": "User Guide",
    "long": "Learn about Modelur in details by opening User Guide in your Browser."
  },
  "ui_add_land_use_data_to_area_sum": {
    "short": "Add this Land Use values to the sum total",
    "long": "Take this Land Use into account when calculating aggregate values of the Whole Plot (eg. Gross Floor Area)"
  },
  "ui_add_only_parking_data_to_sum": {
    "short": "Add only Parking values to the sum total",
    "long": "Use only parking values of this Land Use when calculating aggregate values of City Blocks and Whole Plot."
  },
  "ui_include_gfa_in_far_calculation": {
    "short": "Include Gross Floor Area of this Use in FAR calculations?",
    "long": "Should Gross Floor Areas of buildings with this Use be included in Floor Area Ratio calculation for City Blocks and Whole Plot?"
  },
  "ui_included_in_far": "Included in FAR",
  "ui_average_parking_area": {
    "short": "Average Parking Area Size",
    "long": "How much gross area does each parking space take on average?"
  },
  "ui_parking_lots_deficit": "Parking Spaces Deficit",
  "ui_required_parking_area": "Required Parking Area",
  "ui_check_for_updates": {
    "short": "Check for Update…",
    "long": "Check if there is new version of Modelur available. If so, you will be presented with and option to download and install it."
  },
  "ui_latest_version_installed": "You have the latest version installed.",
  "ui_could_not_check_latest_version": "Modelur was not able to obtain latest version information. Please make sure you are online and try checking again later.",
  "ui_open_urban_control_data_table": "Open Urban Control Data Table",
  "ui_show_license_info": {
    "short": "Show License Info",
    "long": "Display information about your Modelur license."
  },
  "ui_modelur_license_info": "Modelur License Info",
  "ui_license_key": "License Key",
  "ui_expiration_date": "Expiration Date",
  "ui_license_doesnt_exist": "Modelur License doesn't exist.",
  "ui_create_city_block": "Create City Block",
  "ui_create_city_block_description": "Convert selected polygons or closed planar edge loops to Modelur City Blocks.",
  "ui_selected_city_block_parameters": {
    "short": "Selected City Block Parameters",
    "long": "Here you can change Parameters of all selected City Blocks. If no City Block is selected, this points to the City Blocks of selected Buildings."
  },
  "ui_city_block": "City Block",
  "ui_selected_city_block_urban_control": {
    "short": "Urban Control - City Block",
    "long": "Here you can see the values of last City Block selected. If no City Block is selected, this panel shows the values of the last selected Building's City Block."
  },
  "ui_city_block_area": "City Block Area",
  "ui_city_block_name": "City Block Name",
  "ui_select_all_cb": {
    "short": "Select All",
    "long": "Select all City Blocks in the Model"
  },
  "ui_lock_city_blocks_upon_creation": {
    "short": "Lock City Blocks Upon Creation",
    "long": "Do you want to automatically Lock City Blocks when they are created?"
  },
  "ui_colorize_city_blocks": {
    "short": "Apply City Blocks LU Material",
    "long": "Assign Land Use material to City Blocks"
  },
  "ui_default_city_block_building_params": {
    "short": "Selected City Block - Building Parameters",
    "long": "Default Building Parameters of all selected City Blocks. If no City Block is selected, this points to the City Blocks of selected Buildings."
  },
  "ui_site_limits": "General Site Limits",
  "ui_city_blocks": "City Blocks",
  "ui_buildings": "Buildings",
  "ui_complex_building": "Complex Building",
  "ui_default_land_use": "Default Land Use",
  "ui_city_block_uid": "City Block UID",
  "ui_city_block_survey": {
    "short": "Survey of Selected City Block",
    "long": "Heads-up Display of Urban Control Values for last selected City Block"
  },
  "ui_whole_plot_area": "Whole Plot Area",
  "ui_investment_calculation": "Investment calculation",
  "ui_assessed_investment": "Assessed Investment",
  "ui_assessed_income": "Assessed Income",
  "ui_building_height": "Building Height",
  "ui_min_distances": "Minimum Distances",
  "ui_sync_cb_params": {
    "short": "Sync",
    "long": "Sync City Block Parameters"
  },
  "ui_other": "Other",
  "me_missing_name": "Please, input your first name.",
  "ui_send_to_excel": "Turn on Excel LiveSync",
  "ui_send_to_excel_statusbar": "Sync your model's data with Excel in real-time. Enhance your analysis with custom formulas that calculate results instantly.",
  "ui_store_LU_changes": {
    "short": "Store Land Use changes",
    "long": "Automatically store Land Use changes so you can exchange Land Use specifications between different SKP models (eg. when copying one Building with non-default Land Use from one SKP model to another)."
  },
  "ui_sum_of_selected": "Sum of Selected",
  "ui_sum_of_selected_buildings": "Sum of %{n} selected Buildings",
  "ui_dont_warn_about_unoffical_languages": "Don't warn me about unofficial languages anymore",
  "ui_dont_show_this_notice": "Don't show this notice anymore",
  "ui_calculate_FAR_based_on": {
    "short": "Calculate FAR Using",
    "long": "Tell Modelur whether should it calculate FAR based on Gross or Net Floor Area."
  },
  "ui_sync_layer": {
    "short": "Sync Building's Layer",
    "long": "When changing Building Layer, change its Entities (Edges and Faces) Layer, too."
  },
  "ui_per_storey": "per Storey",
  "ui_calculate_form_factor": {
    "short": "Calculate Building's Form Factor",
    "long": "Calculate Form Factor, Surface to Volume Ratio and Envelope Area of the last Building selected. Note that this function is still experimental and that it might not work consistently if used on Complex Buildings whose parts are not aligned well."
  },
  "ui_add_geolocation_for_gis_import": "Please make sure to set your location before using Modelur's GIS/OSM import functionality.<br><br>You can do this via:<br>File > Geo-location > Add Location…<br><br>Once you set your location, you will be able to import geolocated data.",
  "ui_gis_file_not_in_epsg4326": "GIS file you are trying to import is not saved in supported coordinate system.<br><br> Please make sure to save it in WGS84 (EPSG:4326) CRS before importing it into SketchUp.",
  "ui_error_parsing_JSON_file": "Error parsing JSON file",
  "ui_invalid_JSON_file": "%{filename} does not appear to be a valid JSON file.<br><br>Please check it for syntax errors, missing commas, or incorrect data types.<br><br>For help validating your JSON, please search for \"JSON validator\" online.",
  "ui_import_gis_data": {
    "short": "Import GIS Data",
    "long": "Import SHP or GeoJSON file. For the time being, it needs to be in WGS84."
  },
  "ui_import_geojson_data": {
    "short": "Import GeoJSON Data…",
    "long": "Import GeoJSON file. For the time being, it needs to be in WGS84."
  },
  "ui_download_osm_buildings": {
    "short": "Download OSM 3D Buildings",
    "long": "Download OpenStreetMap buildings as volumes. Note that buildings data is community provided and not verified."
  },
  "ui_download_osm_morhpology": {
    "short": "Download OSM 2D Urban Morphology",
    "long": "Download OpenStreetMap buildings as a black 2D floor plans."
  },
  "ui_export_geojson_data": {
    "short": "Export to GeoJSON",
    "long": "Export your Modelur model to GeoJSON. Files will be automatically saved next to your SKP file."
  },
  "i18n_pattern": "Pattern",
  "i18n_gis_data_import": "GIS Data Import",
  "i18n_parameter_mapping": "Parameter mapping",
  "i18n_import_as": "Import as",
  "i18n_modelur_buildings": "Modelur Buildings",
  "i18n_building_volumes": "Building Volumes",
  "i18n_x_offset": "X Offset",
  "i18n_y_offset": "Y Offset",
  "i18n_land_use_mapping": "Land Use Mapping",
  "i18n_import_wfs_layer": "Import WFS Layer",
  "i18n_export_mapping": "Export Mapping…",
  "i18n_import_mapping": "Import Mapping…",
  "i18n_import_as_modelur_buildings": "Import as Modelur Buildings",
  "i18n_import_as_modelur_complex_buildings": "Import as Modelur Complex Buildings",
  "i18n_import_as_simple_building_volumes": "Import as Simple Buildings Volumes",
  "i18n_import_as_city_blocks": "Import as Modelur City Blocks",
  "i18n_import_as_2d_polygons": "Import as Simple 2D Faces",
  "i18n_import_as_trees": "Import as Trees",
  "i18n_import_as_waste_bins": "Import as Waste Bins",
  "i18n_built_area": "Built Area",
  "i18n_unused_GFA": {
    "short": "Unused GFA",
    "long": "Unused Gross Floor Area"
  },
  "i18n_unused_BA": {
    "short": "Unused BA",
    "long": "Unused Built Area"
  },
  "i18n_gis_uuid": "GIS UUID",
  "i18n_parent_building_id": "Parent Building ID",
  "i18n_tree_height": "Tree Height",
  "i18n_tree_species": "Tree Species",
  "i18n_bin_height": "Bin Height",
  "i18n_notification": "Notification",
  "i18n_gis_data_import_filepath": "Open GIS File",
  "i18n_import_mapping_settings": "Import mapping settings",
  "i18n_wrong_mjson_digest": "It seems that your mapping file (MJSON), which is stored next to your GIS file, has been edited outside of Modelur. This might cause errors if file was not edited correctly.",
  "i18n_ground_to_sea_level": "Ground to Sea Level",
  "i18n_eave_to_sea_level": "Eave to Sea Level",
  "i18n_level": "Level",
  "i18n_z_value": "Z Value",
  "i18n_road_width": "Road Width",
  "i18n_road_profile": "Road Profile",
  "i18n_road_classification": "Road Classification",
  "i18n_rail_width": "Rail Width",
  "i18n_tube_diameter": "Tube Diameter",
  "i18n_tube_profile": "Tube Profile",
  "i18n_tube_color": "Tube Color",
  "i18n_distance_to_surface": "Distance to Surface",
  "i18n_tube_line": "Tube Line",
  "i18n_pipe_diameter": "Pipe Diameter",
  "i18n_pipe_profile": "Pipe Profile",
  "i18n_pipe_color": "Pipe Color",
  "i18n_import_as_terrain": "Import as Terrain",
  "i18n_import_as_underground_pipes": "Import as Underground Pipes",
  "i18n_import_as_metro": "Import as Metro",
  "i18n_import_as_road_axes": "Import as Road Axes",
  "i18n_gis_preferences": "GIS Preferences",
  "i18n_generate_missing_land_uses": "Generate missing Land Uses",
  "ask": "Ask",
  "i18n_supported_geometry_types": "Geometry type %{geometry_type} is currently not supported.<br><br>Modelur currently supports the following geometry types:<br>%{supported_geometries}",
  "i18n_multiple_geometry_types_not_supported": "The loaded file contains a mix of the following geometries: %{geometry_types}.<br><br>Modelur requires files with a single geometry type. Supported geometries:<br>%{supported_geometries}<br>Please make sure your file contains one and only one of these geometry types.",
  "i18n_unsupported_gis_object_type": "Modelur is not able to import %{object_type} object type into SketchUp.<br><br>Please select some other import object type from the \"Import as …\" dropdown.",
  "i18n_no_features_in_file": "The provided file does not contain any geometric Features.<br><br>Please make sure to load a file that contains some geometric Features. The supported geometry types are:<br>%{supported_geometries}",
  "i18n_split_modelur_object": "Split Modelur Object",
  "i18n_activate_split_object_tool": "Activate Split Modelur Object Tool to split Building or City block in two (or more) parts based on Split Plane. Align Split Plane using Ctrl or Shift on any Edge or Construction Line.",
  "i18n_save_file_before_geojson_export": "In order to export data to GeoJSON, your SKP model needs to be saved first.<br><br>Would you like to save your file now?",
  "i18n_geojson_export_failed": "Export to GeoJSON failed!",
  "i18n_geojson_export_succeeded": "Exported to GeoJSON succeeded, new files are saved next to your SKP model.",
  "i18n_complex_building_level": "Complex Building Level",
  "i18n_parent_building_uid": "Parent Building UID",
  "i18n_building_uid": "Building UID",
  "i18n_ground_to_sea": "Ground to Sea Elevation",
  "i18n_eave_to_sea": "Eave to Sea Elevation",
  "er_gis_unsupported_filetype": "Please select a valid GeoJSON file.<br><br>You have chosen %{filetype} file type which is not supported by Modelur.<br><br>You can convert your file using <a href=\"https://www.qgis.org/\" target=\"_blank\" style=\"text-decoration:underline\">QGIS</a> or other similar GIS software.",
  "ui_invalid_file_type": "Invalid File Type",
  "error_report": "Error report",
  "ui_generate_cb": {
    "short": "Generate",
    "long": "Generate random Modelur buildings on selected city blocks"
  },
  "me_non_empty_city_blocks": "Some of the selected city blocks have buildings on them. To generate new development on a city block with existing buildings, you need to either delete or hide the existing buildings.",
  "me_select_city_blocks_to_generate": "Please select one or more city blocks to generate buildings.",
  "me_select_city_blocks_to_clear": "To clear buildings, please select one or more city blocks.",
  "ui_setback": "Setback",
  "i18n_distance_between_buildings": "Distance Between Buildings",
  "i18n_minimum_building_length": "Minimum Building Length",
  "i18n_minimum_building_width": "Minimum Building Width",
  "i18n_minimum_building_height": "Minimum Building Height",
  "i18n_maximum_building_width": "Maximum Building Width",
  "i18n_maximum_building_length": "Maximum Building Length",
  "i18n_mix_of_uses": "Mix of Uses",
  "i18n_clear_buildings": "Clear Buildings",
  "i18n_generate": "Generate",
  "ui_massing_generator": {
    "short": "Massing Generator",
    "long": "Open Massing Generator UI to generate random massing on selected City Blocks."
  },
  "ui_save_as_legacy": "Save in Modelur Legacy Format…",
  "i18n_unknown_error": "Unknown error! Please us at %{link_support_email}.",
  "i18n_modelur_error": "Modelur Error",
  "ui_interactive_tutorial": "Interactive Tutorial",
  "ui_intro_video": {
    "short": "Intro Video",
    "long": "Learn basics of Modelur by open Modelur introduction video in your browser."
  },
  "ui_show_city_block_envelope": "Show City Block Virtual Envelope",
  "ui_toggle_envelope": "Toggle Envelope",
  "ui_envelope": "Envelope",
  "i18n_offset": "Offset",
  "ui_license_plan": "License Plan",
  "ui_building_dashboard": "Building Dashboard",
  "ui_city_block_dashboard": "City Block Dashboard",
  "ui_whole_plot_dashboard": "Whole Plot Dashboard",
  "ui_data": "Data",
  "ui_investment": "Investment",
  "ui_income": "Income",
  "i18n_identity": "Identity",
  "i18n_parameters": "Parameters",
  "i18n_mass": "Mass",
  "i18n_city_block_contribution": "City Block Contribution",
  "i18n_urban_impact": "Urban Impact",
  "i18n_car_parking": "Car Parking",
  "i18n_landscape": "Landscape",
  "i18n_identity_and_limits": "Identity & Limits",
  "i18n_max_efficiency": "Max Efficiency",
  "i18n_current_model": "Current Model",
  "i18n_financial_estimation": "Financial Estimation",
  "i18n_required_parking_spaces": {
    "short": "Required PS",
    "long": "Required Parking Spaces"
  },
  "i18n_provided_parking_spaces": {
    "short": "Provided PS",
    "long": "Provided Parking Spaces"
  },
  "i18n_deficit_spaces": {
    "short": "Missing PS",
    "long": "Missing Parking Spaces"
  },
  "i18n_surplus_spaces": {
    "short": "Surplus PS",
    "long": "Surplus Parking Spaces"
  },
  "i18n_available_parking_spaces": {
    "short": "Available PS",
    "long": "Available Parking Spaces"
  },
  "i18n_exceeded_GFA": {
    "short": "Exceeded GFA",
    "long": "Exceeded Gross Floor Area"
  },
  "i18n_exceeded_BA": {
    "short": "Exceeded BA",
    "long": "Exceeded Built Area"
  },
  "i18n_gis_lock_imported_objects": "Lock objects imported from GIS data",
  "i18n_other": "Other",
  "i18n_permitted": "Permitted",
  "i18n_unused": "Unused",
  "i18n_exceeds": "Exceeds Limit",
  "i18n_exceeds_max": "Exceeds Max",
  "i18n_building_causes_exceedance_for_FAR": "Building contributes to the exceeded floor area ratio. You might consider decreasing gross floor area of this building.",
  "i18n_building_causes_exceedance_for_site_coverage": "Building contributes to the exceeded site coverage. You might consider decreasing built area of this building.",
  "ui_zoom": "Zoom",
  "i18n_yes": "Yes",
  "i18n_no": "No",
  "er_license_could_not_be_saved": "Modelur was not able to save license file. Please contact us at support@modelur.com",
  "i18n_expired_switch_to_free": "Your Modelur Pro subscription has ended. To ensure you can keep on using it, we've switched you to the Free Plan. Please visit https://modelur.com/pricing to obtain a new Pro subscription and unlock all that Modelur has to offer.<br><br>In case you already have a new license key you can enter it in license dialog. Would you like to open it now?",
  "i18n_use": "Use",
  "i18n_default_use": "Default Use",
  "ui_dashboard": "Dashboard",
  "ui_use_dashboard": "Use Dashboard",
  "ui_terrace": "Terrace",
  "ui_loggia": "Loggia",
  "ui_primary": "Primary",
  "ui_secondary": "Secondary",
  "i18n_ui_mode": "User Interface",
  "i18n_expert": "Expert",
  "i18n_simple": "Simple",
  "i18n_rename": "Rename",
  "ui_add_use": "Add Use",
  "ui_restore_building": "Restore Building",
  "ui_copy_building": "Copy Building",
  "ui_generate_massing": "Generate Massing",
  "ui_change_use": "Change Use",
  "ui_change_use_color": "Change Use Color",
  "ui_change_warning_color": "Change Warning Color",
  "ui_change_use_calculation": "Change Use Calculation Mode",
  "ui_modelur_version": "Modelur Version",
  "ui_sketchup_version": "SketchUp Version",
  "ui_toggle_cb_color": "Toggle City Blocks Colors",
  "i18n_generator_pattern": "Generator Pattern",
  "ui_approx_use_ratio": "Approximate Use Ratio",
  "ui_primary_unit_calculation": "Primary Unit Calculation",
  "ui_secondary_unit_calculation": "Secondary Unit Calculation",
  "ui_unit_definition": "Set Unit Definition",
  "ui_parking_definition": "Set Parking Definition",
  "ui_change_selected_use": "Change Selected Use",
  "ui_change_far_calculation": "Change FAR Calculation Mode",
  "i18n_show_hidden_by_timeline_warning": "You can not show Modelur objects that are hidden by development timeline. If you wish to show them, please make sure to adjust development timeline to correct date/phase.",
  "i18n_setbacks_upon_model_upgrade": "Current version of Modelur does not yet support City Block's Setbacks so they were removed from opened SKP model.",
  "i18n_erasing_materials_not_allowed": "Erasing Modelur materials is not allowed.",
  "i18n_cant_create_building_while_inside_group": "You can not create Modelur objects while you are inside another Group or Component.<br><br>To create new Buildings or City Blocks, please exit to model root and create them from there.",
  "i18n_cx_building_cant_be_created": "Complex Building can not be created from a single simple Building. Creating from scratch.",
  "i18n_create_face_or_edge_loop_for_city_block": "In order to create a new City Block, you need to create and/or select at least one horizontal Face or closed planar Edge loop that will represent new City Block.",
  "i18n_modelur_problem_fixed": "Modelur Problem Fixed",
  "i18n_unsupported_operation": "The operation you have just performed would make the model inconsistent.<br><br>To avoid potential problems Modelur called undo.",
  "ui_convert_envelope_to_building": "Convert Envelope to Building",
  "ui_envelope_to_building_tooltip": "Select manifold (solid) object Group and convert it to Modelur Building.",
  "i18n_no_manifold_groups_in_selection": "There are no manifold Groups in selection.<br><br>In order to great Building from envelope, make sure to select a group that contains a manifold (solid & watertight) object.",
  "i18n_osm_building_name_tpl": "OpenStreetMap Building - %<id>s",
  "i18n_osm_volumes_name": "OpenStreetMap Buildings: 3D volumes",
  "i18n_osm_morphology_name": "OpenStreetMap Buildings: 2D morphology",
  "i18n_name_occupied_by_use": "Newly added Use name is already taken so Modelur added numeric suffix to it.",
  "i18n_name_occupied_by_material": "Newly added Use name conflicts with SketchUp Material's name so Modelur added numeric suffix to it.",
  "ui_change_gfa_calculation": "Change GFA Calculation Mode",
  "ui_calculate_GFA_based_on": {
    "short": "Calculate GFA Using",
    "long": "Tell Modelur whether it should calculate Gross Floor Area based on Building's Internal Floors only, or it should also include Terraces and Loggias."
  },
  "ui_internal_floors_only": "Internal Floors Only",
  "ui_internal_and_external_floors": "Internal and External Floors",
  "ui_reset_modelur_settings": {
    "short": "Reset Modelur Settings",
    "long": "Reset Modelur to factory settings. Once applied, please restart SketchUp and Modelur."
  },
  "ui_save_modelur_settings": {
    "short": "Save Modelur Settings",
    "long": "This will save your current model settings and preferences as defaults. They will bee used every time you initialize new Modelur model."
  },
  "ui_confirm_reset_to_factory_settings": "Are you sure you want to reset Modelur to factory settings?<br><br>Once you click Yes to confirm this action, please make sure to restart SketchUp and Modelur in order for changes to take effect. Your current model will stay unchanged.<br><br>Do you wish to proceed?",
  "ui_xlsx_uses_tab": "Modelur Uses",
  "ui_xlsx_buildings_tab": "Modelur Buildings",
  "ui_xlsx_city_blocks_tab": "Modelur City Blocks",
  "ui_xlsx_autogenerated_notice": "This data is autogenerated by Modelur. Any changes to this data will be lost.",
  "ui_achieved_cov": "Achieved Coverage",
  "ui_permitted_cov": "Permitted Coverage",
  "ui_achieved_FAR": "Achieved FAR",
  "ui_xlsx_file_already_exists": "Excel LiveSync document that corresponds to your new SKP file already exists at:<br>%{xlsx_filepath}<br><br>Select YES to overwrite it with currently opened Excel document, or NO to open existing one.<br><br>If unsure, you can check existing document (%{filename}) in Excel before choosing your action.",
  "ui_xlsx_read_only_not_saved": "Your SketchUp model has been saved, but its related Excel LiveSync document is Read-Only and can not be saved automatically.<br><br>This happened because %{filepath} is opened in another instance of Excel.<br><br>If you wish to automatically save changes to your Excel LiveSync document, make sure to remove Read-Only mode by closing %{filename} in any other running instance of Excel. Once you close other instances confirm switching to Read-Write mode in Excel LiveSync document.",
  "ui_xlsx_started_editing_cell": "Modelur detected you have started editing Excel LiveSync document connected to your open SKP model.<br><br>While it is completely OK to edit Excel LiveSync document, please note SketchUp might stop responding when doing so.<br><br>In order to continue working on your 3D model, just make sure to exit any cell you are editing in Excel.",
  "ui_xlsx_livesync_windows_only": "Excel LiveSync is currently only available on Windows.",
  "ui_xlsx_excel_missing": "Please make sure to install Excel before running this functionality.",
  "ui_xlsx_livesync_already_open": "Your Excel LiveSync connection is already open.<br><br>If you don't see it, please make sure to bring Excel window to front (Alt+Tab).",
  "ui_xlsx_save_readonly": "Note your current Excel LiveSync was opened in Read-Only mode and Modelur is not able to save it automatically.<br><br>Please select YES to save the file (note Save As dialog box will open in Excel), or NO if you wish to discard the file.",
  "ui_xlsx_save_unsaved_on_close": "You have closed unsaved SKP file connected to Excel LiveSync document.<br><br>To save linked Excel LiveSync document, please choose YES and click on Excel window to specify where to save the file.<br><br>Select NO to ignore changes and close Excel file without saving.",
  "ui_xlsx_save_filepath": "Would you like to save %{filepath} file before closing it?",
  "ui_xlsx_livesync_caption": "Modelur LiveSync [%{filename}.skp -> %{filename}.xlsx]",
  "ui_xlsx_upgrade_settings_failed": "Modelur encountered problems while upgrading your Excel LiveSync settings, so it reverted it back to the defaults.<br><br>In case you want to check it, the copy of your original settings was backed up to:<br>%{filepath}",
  "ui_add_use_dots": "Add Use…",
  "ui_xlsx_cant_save_write_protected_file": "Modelur tried to save Excel LiveSync document but it could not do it due to file write permissions (probably XLSX is already open?).<br><br>To prevent data loss Modelur appended timestamp to filename and stored it to:<br>%{new_filepath}<br><br>Note %{old_filepath} will now be opened as Excel LiveSync document.",
  "ui_cant_generate_massing_on_all_city_blocks": "Modelur can't generate massing on all selected City Blocks. REASONS:",
  "ui_cant_generate_massing_on_city_blocks": "Modelur can't generate massing on selected City Blocks. REASONS:",
  "ui_missing_city_block_parameters": "Missing City Block Parameters. SOLUTION:<br>Make sure to specify %{missing_parameters} in General Site Limits of City Blocks Tab.",
  "ui_city_block_contains_buildings": "City Block contains Buildings. SOLUTION:<br>To generate a new development on a City Block with existing Buildings, you need to either delete or hide the existing Buildings.",
  "ui_could_not_generate_massing": "Modelur was not able to generate Massing on all selected City Blocks.<br><br>Please make sure City Blocks are large enough to accommodate auto-generated massing or adjust Massing Generator Parameters.",
  "ui_reload_modelur_model": "Reload Modelur Model",
  "ui_quit_modelur": "Quit Modelur",
  "ui_remove_use": "Remove Use",
  "ui_restore_user_interfaces": "Restore User Interfaces",
  "ui_restore_ui_description": "Reset Modelur User Interface(s) to your main Monitor. This can be helpful if SketchUp left them on some monitor that is now disconnected and you can not see them.",
  "i18n_lightup": {
    "run_daily_sunlight_analysis_cmd": "Run LightUp Daily Sunlight Analysis",
    "run_daily_sunlight_analysis_cmd_description": "Run daily sunlight analysis on the summer/winter solstice, equinox or any other date using LightUp.",
    "show_lightup_instructions_cmd": "LightUp Instructions",
    "show_lightup_instructions_cmd_description": "Display instructions on how to setup and use Modelur to LightUp integration.",
    "time_of_year": "Time of Year",
    "sampling_size": "Sampling Size",
    "heatmap_threshold": "Heatmap Threshold",
    "gradient_display": "Gradient Display",
    "modelur_to_lightup_intro": "Modelur to LightUp Introduction",
    "lu_update_required": "It looks like you already have LightUp installed, but it needs to be updated.<br><br>Would you like to open a browser so you can download latest release?",
    "enable_lightup": "It looks like LightUp is already installed, but it is not enabled.<br><br>Would you like to open Extension Manager to enable it?",
    "install_lightup": "In order to run Sunlight Analysis you first need to install LightUp.<br><br>Would you like to open a browser so you can register for a free 30 day trial version?",
    "georeference_model_before_analysis": "Please make sure to geo-reference your model before running LightUp Sunlight Analysis.<br><br>Modelur will now open Add Location window. Once you have geo-referenced your model, click on Run LightUp Daily Sunlight Analysis button again."
  },
  "i18n_modelur_parameter": "Modelur Parameter",
  "i18n_gis_property_name": "GIS property name",
  "i18n_gis_property_value": "GIS property value",
  "i18n_gis_failed_to_convert_feature": "Modelur successfully converted %{valid_count} GIS features to Modelur objects. Unfortunately, %{invalid_count} features couldn't be imported due to missing or incorrect property values, or invalid geometry.<br><br>A detailed log of the import errors has been saved as %{filename} next to your GIS file.<br><br>Would you like to open it now?",
  "i18n_gis_import_message": "GIS Import Message",
  "i18n_gis_load_file": "It seems you have not specified the GIS file you wish to import.<br><br>Please make sure to load and map GIS file before trying to import it.",
  "i18n_object_split_fail": "We encountered a challenge splitting %{object_name} using the indicated cut plane. Since this split would result in inconsistent Modelur %{object_type}s, the split was aborted.<br><br>Perhaps you can try splitting it using a different cut plane, or splitting it into smaller sections first might work better.",
  "ui_building_part": "Building Part",
  "ui_envelope_building": "Envelope Building",
  "i18n_uses_notification": "Modelur Uses Notification",
  "i18n_duplicate_use_detected_and_replaced": "<b>Existing Uses detected</b><br>Some pasted objects contain Use that is already defined in this Model, but it's parameters differ from the one in the model. To avoid clutter and maintain a clean model, we've replaced any duplicate Uses with existing ones.<br><br>List of replaced Uses:<br>%{new_uses_list}<br>Tip: To import new Uses just make sure their name is unique before pasting objects contain them to this model.",
  "i18n_new_use_added": "<b>New Uses detected</b><br>Some pasted objects contain Modelur Use that was not yet defined in this model so we've created them for you.<br><br>List of new Uses added to the model:<br>%{new_uses_list}",
  "ui_modelur_just_updated": "Modelur Installation Updated!<br><br>To ensure everything runs smoothly, please restart SketchUp before initializing Modelur.",
  "i18n_gis_import": "GIS Import",
  "i18n_wfs_import": "WFS Import",
  "i18n_2d_faces": "2D Faces",
  "er_system_not_matching_license": "Modelur license you're using is not authorized to run on this computer. This could be due to factors like hardware changes or incorrect license data.<br><br>Would you like to try updating your Modelur license?",
  "me_modelur_closing_due_time_sync": "Modelur is closing due to a time synchronization issue.<br><br>There seems to be a problem with your system's time settings. Please ensure you're connected to the internet and your system time is accurate.<br><br>Once you've corrected the time, you can try restarting Modelur.",
  "i18n_license_updated": "Your Modelur license has been updated.<br><br>Thank you!",
  "i18n_add_geolocation_for_gis_export": "Before exporting to GeoJSON, please make sure to set your location.<br><br>To set your location:<br><br> Go to File > Geo-location.<br> Select Add Location… <br><br>Once you've done this, you can export your data to GeoJSON.",
  "i18n_error_saving_file": "Error saving file to: <br><br> %<path>s",
  "i18n_auth_error_quit": "Modelur encountered Authorization Error and will now Quit.<br><br>Please send us Error report that will open in a separate window.",
  "i18n_primary_units": "Primary Units",
  "i18n_secondary_units": "Secondary Units",
  "i18n_auth_error": "Authorization Error",
  "i18n_excel_not_available_on_plan": "Ready to unlock the power of Excel LiveSync?<br><br>Your current license doesn't include Excel LiveSync functionality. Upgrade to Modelur Pro to sync your 3D model's data with Excel in real-time.<br><br>Click Yes button below to start your Pro journey.",
  "i18n_gis_not_available_on_plan": "Unlock Modelur's powerful GIS features with a Pro subscription.<br><br>Your current license doesn't include GIS functionality.<br><br>Would you like to upgrade Modelur to access this valuable tool and take your projects to the next level?",
  "i18n_massing_generator_not_available_on_plan": "Want to supercharge your model creation speed with Massing Generator?<br><br>Massing Generator is a powerful feature available only with Modelur Pro license.<br><br>Upgrade to Pro now and experience faster, more efficient model generation.<br><br>Click Yes to start your Pro subscription.",
  "i18n_osm_not_available_on_plan": "Want to import OpenStreetMap data and save time when creating site context?<br><br>Your current Modelur license doesn't include OpenStreetMap 3D Buildings data import feature. Upgrade to Modelur Pro to access this valuable feature.<br><br>Click Yes to start your Pro subscription and save time.",
  "i18n_editing_not_available_on_plan": "Need to make changes to your previously saved models?<br><br>Your current license doesn't allow adding new or editing existing Modelur objects when previously saved Modelur file is opened.<br><br>Experience complete editing freedom with Modelur Pro. Click Yes to upgrade now.",
  "i18n_wfs_not_available_on_plan": "Want to save time by import WFS data directly into your model?<br><br>Your current Modelur license doesn't include importing data from Web Features Service. Upgrade to Modelur Pro to access this valuable feature.<br><br>Click Yes to start your Pro subscription and take advantage of WFS import functionality.",
  "i18n_wfs_tiles_not_available": "We're currently encountering an issue with downloading 3D data tiles for selected area.<br><br>We apologize for the inconvenience.<br><br>Please try again later, or contact our support team at support@modelur.com if the problem persists.",
  "i18n_wfs_tiles_partially_available": "Heads up! We weren't able to download all the data tiles for selected area.<br><br>You can try downloading the data again later to see if it retrieves the full set.<br><br>If the problem persists, please let us know at support@modelur.com.",
  "i18n_values": "Values",
  "i18n_switching_to_free": "Modelur has switched to Free edit mode.<br><br>While in Free edit mode, you can explore Modelur's powerful features to enhance your SketchUp workflow.<br><br>Please note that Modelur Free allows you to reopen in Edit mode only the last file saved to:<br><br>%{model_path}/<br><br>or any SketchUp file that hasn’t been used with Modelur before. Other Modelur files will be opened in View-only mode.<br><br>Also, keep in mind Free plan is allowed for Personal or Non-commercial use only.<br><br>Ready to unlock the full potential of Modelur? Upgrade to Modelur Pro for unlimited editing capabilities and commercial use.<br><br>Click Yes to explore our pricing plans.",
  "i18n_switching_to_view_only": "Modelur has switched to View-only mode.<br><br>While in View-only mode you can view the model and explore its data, but you are not be able to edit Modelur objects.<br><br>To enable Edit mode, you need to either:<br>1) start a new model,<br>2) open a model that contains no Modelur objects, or<br>3) open the last Modelur model you have edited and saved to: %{model_path}/<br><br>Ready to remove this limitation? Upgrade to Modelur Pro for unlimited editing capabilities and commercial use.<br><br>Click Yes to explore our pricing plans.",
  "i18n_modelur_dashboard": {
    "short": "Modelur Dashboard",
    "long": "Open Modelur Dashboard to show detailed data about last selected City Block, or Whole Plot when nothing is selected."
  },
  "i18n_free_plan_default_save_dir_set": "Welcome to Modelur Free!<br><br>To ensure a smooth experience please read the below text carefully:<br><br>1) SINGLE EDITABLE FILE:<br>Modelur Free allows only one saved Modelur SKP file to be reopened and modified later (see below for detailed explanation).<br>2) NON-COMMERCIAL USE ONLY:<br>Modelur Free may only be used for Personal and Non-commercial projects.<br><br>IMPORTANT:<br>To ensure you can edit your Modelur SKP file later, save it directly to:<br><br>%{model_path}/<br><br>When saved here, you will be able to reopen and edit it. However, please note that only the last file saved directly to this location will be editable.<br><br>Any other Modelur SKP file, including older ones in this folder, will open in View-only mode. This means you can still view the data but won't be able to edit Modelur objects. You are welcome to upgrade to Modelur Pro to remove this limitation.<br><br>Note: when opening a new file, or a SKP file that doesn't contain Modelur objects, Modelur will also work in Edit mode.",
  "i18n_free_plan_set_default_save_dir": "Welcome to Modelur Free!<br><br>To ensure a smooth experience please read the below text carefully (these are one-time instructions only):<br><br>1) SINGLE EDITABLE FILE:<br>Modelur Free allows only one saved Modelur SKP file to be reopened and modified later (see below for detailed explanation).<br>2) NON-COMMERCIAL USE ONLY:<br>Modelur Free may only be used for Personal and Non-commercial projects.<br><br>To ensure you can edit your chosen Modelur SKP file later, you first need to specify the folder where you will save your work (eg. your /Documents folder). After you close this window, a \"Select Modelur Folder\" panel will open where you will be able to define your chosen location.<br><br>IMPORTANT: After you save the SKP file you are currently editing to the chosen folder, it will become the only Modelur SKP file you can reopen and edit later.<br><br>Any other SKP file containing Modelur objects will open in View-only mode (including any older SKP files in this folder). This means you will still be able view the data but won't be able to edit Modelur objects. You are welcome to upgrade to Modelur Pro to remove this limitation.<br><br>Note: when opening a new file, or a SKP file that doesn't contain Modelur objects, Modelur will also work in Edit mode.<br><br>Ready to set your chosen Modelur folder?",
  "i18n_select_modelur_folder": "Select Modelur Folder",
  "i18n_free_plan_confirm_selected_folder": "Please confirm this is your chosen folder to store editable SKP file:<br><br>%{model_path}/<br><br>Note: you can still save Modelur SKP files to any other location but they will be opened in View-only mode unless you switch to Modelur Pro.",
  "i18n_free_plan_repeat_select_folder": "It looks like you have not selected a valid folder to store your Modelur SKP file. Please select a valid folder on your local drive.",
  "i18n_heads_up": "Heads Up!",
  "i18n_heads_up_edit_mode": "Heads Up: Edit Mode!",
  "i18n_heads_up_view_mode": "Heads Up: View-only Mode!",
  "i18n_free_plan_copy_paste_limitation": "Want to seamlessly transfer Modelur Buildings, City Blocks and Uses between different Sketchup models?<br><br>Modelur Free allows you to copy and paste Modelur objects within the same model only. To unlock the ability to transfer objects between different SketchUp models, including their associated Uses, you'll need to upgrade to Modelur Pro.<br><br>Ready to take your projects to the next level? Click Yes to check out our pricing plans.",
  "i18n_about_modelur": {
    "short": "About Modelur",
    "long": "Show detailed information about Modelur."
  },
  "i18n_version": "Version",
  "i18n_website": "Website",
  "i18n_support": "Support",
  "i18n_legal": "Legal Docs",
  "i18n_ask_for_units_in_setup": "Let's set up Modelur for you!<br><br>To ensure a smooth experience, please select your preferred SketchUp Unit System (Metric if you are typically using meters, millimeters, etc. or Imperial if you prefer to work in feet, inches, ...).<br><br>Note this one-time setup is only used to determine your starting parameter values. Modelur will later adapt itself to your chosen Unit System automatically when switching SketchUp Model Units.<br><br>A window will now open to from which you can select your preferred Unit System.",
  "i18n_unit_system_ask": "Which Unit System do you typically use?",
  "i18n_select_units": "Select Units",
  "i18n_metric": "Metric",
  "i18n_imperial": "Imperial",
  "i18n_check_expiration": "Check Expiration",
  "i18n_license_expiration_reminder": "Important!<br><br>Your Modelur license will expire in %{days} days (%{date}).<br><br>In order to make sure you can keep on using it uninterruptedly, please visit Modelur website and have it renewed in time.<br><br>Would you like to open Modelur license renewal page now?",
  "i18n_modelur_expiration_reminder": "Important!<br><br>Your Modelur installation will cease to work in %{days} days (%{date}).<br><br>In order to make sure you can keep on using it uninterruptedly, please download the latest version and upgrade your installation.<br><br>Would you like to download the latest Modelur RBZ installer package now?",
  "i18n_close_modelur_on_empty_active_model": "Since no SketchUp models are currently open, Modelur will now exit.<br><br>Please open a new or saved model and restart Modelur to continue using it.",
  "i18n_tab_management_exit_tooltip": "Click to exit Tab Management Mode",
  "i18n_tab_management_enter_tooltip": "Click to enter Tab Management",
  "i18n_facade_area": "Façade Area"
}