{
  "ui_unit": {
    "meters": "m",
    "feet": "ft"
  },
  "ui_squareUnit": {
    "meters": "m²",
    "feet": "ft²"
  },
  "ui_cubicUnit": {
    "meters": "m³",
    "feet": "ft³"
  },
  "ui_percent": "%",
  "ui_empty": "",
  "ui_residentsPerHectare": {
    "short": "EW/ha",
    "long": "Einwohner pro Hektar"
  },
  "ui_file": "Datei",
  "ui_open": "Öffnen…",
  "ui_save": "Speichern",
  "ui_saveAs": "Speichern unter…",
  "ui_import": "Importieren",
  "ui_exportUrbanDesignControlValues": "Kontrollwerte exportieren…",
  "ui_tools": "Werkzeuge",
  "ui_options": "Optionen",
  "ui_translation": "Übersetzung",
  "ui_customize_ui_text": "UI-Text Anpassen",
  "ui_find_text_to_edit": "Text zum Übersetzen/Bearbeiten Suchen",
  "ui_change_text_to": "Text Ändern zu",
  "ui_buildingHeight": "Gebäudehöhe",
  "ui_built_up_area": "Bebauungsfläche",
  "ui_language": "Sprache",
  "ui_saveDefaultSettings": {
    "short": "Standardeinstellung speichern",
    "long": "This will set all your current settings as defaults, which are used every time you initialize new Modelur model."
  },
  "ui_help": "Hilfe",
  "ui_plotParameters": "Grundflächen Kenngrößen",
  "ui_plotArea": "Grundfläche",
  "ui_allowed_FAR": {
    "short": "Geplante GFZ",
    "long": null
  },
  "ui_allowed_site_coverage": {
    "short": "Geplante Gebäudefaktoren",
    "long": null
  },
  "ui_allowed_building_height": {
    "short": "zulässige Gebäudehöhe",
    "long": null
  },
  "ui_min": "Minimum",
  "ui_max": "Maximum",
  "ui_defaultBuildingParameters": " Gebäude Grundeinstellungen",
  "ui_numberOfStoreys": "Geschosseanzahl",
  "ui_firstStoreyHeight": "Höhe Erdgeschoss",
  "ui_otherStoreysHeight": "darüberliegende Geschosse",
  "ui_minDistanceBetweenBuildings": {
    "short": "Mindestabstand Gebäude",
    "long": "Minimaler Abstand zwischen Gebäuden"
  },
  "ui_parkingLots": "Stellplatzbedarf",
  "ui_building": "Gebäude",
  "ui_create": "Erstellen",
  "ui_restoreDefaults": {
    "short": "Wdr.herstellen",
    "long": "Wiederherstellen"
  },
  "ui_selectedBuildingParameters": "Ausgewählte Gebäudeparameter",
  "ui_editingModesOfBuilding": "Gebäude bearbeiten",
  "ui_preserveBuiltArea": "Baugrundfläche beim manuellem Skalieren beibehalten",
  "ui_survey": "Flächenauswertung",
  "ui_surveyOfSelectedBuilding": "Flächenauswertung ausgewählter Gebäude",
  "ui_basic": "Einfach",
  "ui_full": "Vollständig",
  "ui_surveyOfPlotArea": "Flächenauswertung der Grundfläche",
  "ui_warnings": "Warnungen",
  "ui_tooLowDistanceBetweenBuildings": "Zu geringer Abstand zwischen den Gebäuden",
  "ui_plotAreaUrbanControl": "Urbane Flächenkontrolle EW/ha",
  "ui_floorSpaceIndex": "Freiflächenindex",
  "ui_floorSpaceIndexValue_plot": null,
  "ui_grossFloorAreaValue_plot": null,
  "ui_builtAreaValue_plot": null,
  "ui_buildingFactorValue_plot": null,
  "ui_recommendedNumberOfParkingLotsValue_plot": null,
  "ui_grossFloorAreaUnderground": {
    "short": "Tiefgarage",
    "long": null
  },
  "ui_grossFloorAreaUndergroundValue_plot": null,
  "ui_averageNumberOfStoreysValue_plot": null,
  "ui_expectedNumberOfParkingLotsUnderground": {
    "short": "Erwartete Tiefgaragen Stellplatzflächen",
    "long": null
  },
  "ui_expectedNumberOfParkingLotsUndergroundValue_plot": null,
  "ui_requiredGreenSurfaceAreas_plot": null,
  "ui_populationDensity_plot": null,
  "ui_selectedBuildingUrbanControl": {
    "short": "Urbane Kontrolle - Ausgewählte Gebäude",
    "long": null
  },
  "ui_buildingHeightValue_building": null,
  "ui_numberOfStoreysValue_building": null,
  "ui_recommendedNumberOfParkingLotsValue_building": null,
  "ui_buildingVolume": "Gebäudevolumen",
  "ui_buildingVolumeValue_building": null,
  "ui_residentialAreaValue_building": null,
  "ui_serviceAreaValue_building": null,
  "ui_industryAreaValue_building": null,
  "ui_buildingExpectedNumberOfDwellingsValue_building": null,
  "ui_expectedNumberOfWorkplacesValue_building": null,
  "ui_numberOfResidents_building": null,
  "ui_warning": "Warnung",
  "ui_dialogOkButton": "Schließen",
  "ui_dialogCancelButton": "Abbrechen",
  "ui_dialogApplyButton": "Übernehmen",
  "er_modelurServerUnavailable": "Modelur Internetverbindung fehlgeschlagen.<br><br>Stellen Sie sicher, dass Sie mit dem Internet verbunden sind und probieren Sie es später noch einmal.",
  "ui_minDistanceBetweenBuildingsRatio": {
    "short": "Mindestab/Höhenverhält.",
    "long": "Mindestabstand zu Höhenverhältnis"
  },
  "ui_percentOfUsableGrossFloorArea": {
    "short": "% der nutzbaren BGF",
    "long": "Prozentsatz der nutzbaren Bruttogesamtfläche"
  },
  "ui_terraceFloorAreaPercent": {
    "short": "Br.anteil der Terr. in %",
    "long": "Bruttoflächenanteil von Terassen in %"
  },
  "ui_loggiaFloorAreaPercent": {
    "short": "Br.anteil der Log. in %",
    "long": "Bruttoflächenanteil von Loggien in %"
  },
  "ui_buildingID": "Gebäude ID",
  "ui_meters": "Meter",
  "ui_feet": "Feet",
  "ui_gross_floor_area": "Bruttogrundfläche",
  "ui_GFA": {
    "short": "BGF",
    "long": "Bruttogeschossfläche"
  },
  "ui_NFA": {
    "short": "NGF",
    "long": "Nettogeschossfläche"
  },
  "ui_GA": {
    "short": "GF",
    "long": "Grünflächen"
  },
  "ui_parking_lot": "Stellplatz",
  "ui_PL": {
    "short": "StP",
    "long": "Stellplatz"
  },
  "ui_sync_land_use_panels": {
    "short": "Flächen/Raumplanung synchronisieren",
    "long": "Keep Land Use panels between Input data and Survey tab in sync."
  },
  "ui_land_use": "Flächennutzungsplan",
  "ui_color": "Farbe",
  "ui_first_unit": "Erste Einheit",
  "ui_second_unit": "Zweite Einheit",
  "ui_NFA_factor_internal": {
    "short": "NGF Innenflächen",
    "long": "Faktor Nettogeschossfläche"
  },
  "ui_NFA_factor_terrace": {
    "short": "NGF Terassen",
    "long": "Faktor Nettogeschossfläche"
  },
  "ui_NFA_factor_loggia": {
    "short": "NGF Loggien",
    "long": "Nettogeschossfläche"
  },
  "ui_unit1": {
    "singular": {
      "apartment": "Apartement",
      "office": "Büro",
      "room": "Raum",
      "classroom": "Schulungsraum",
      "department": "Abteilung",
      "hall": "Halle",
      "workshop": "Arbeitsraum",
      "shop": "Geschäft",
      "parking_lot": "Stellplatz"
    },
    "plural": {
      "apartment": "Apartements",
      "office": "Büros",
      "room": "Räume",
      "classroom": "Schulungsräume",
      "department": "Abteilungen",
      "hall": "Hallen",
      "workshop": "Arbeitsräume",
      "shop": "Geschäfte",
      "parking_lot": "Stellplätze"
    }
  },
  "ui_unit2": {
    "singular": {
      "resident": "Einwohner",
      "employee": "Mitarbeiter",
      "guest": "Gast",
      "student": "Student",
      "child": "Kind",
      "workplace": "Arbeitsplatz",
      "chair": "Stuhl",
      "bed": "Bett",
      "car": "Auto"
    },
    "plural": {
      "resident": "Einwohner",
      "employee": "Mitarbeiter",
      "guest": "Gäste",
      "student": "Studenten",
      "child": "Kinder",
      "workplace": "Arbeitsplätze",
      "chair": "Stühle",
      "bed": "Betten",
      "car": "Autos"
    }
  },
  "ui_units": "Einheiten",
  "ui_op_divide": "pro",
  "ui_NFA_calculation": "Berechnung der Nettogrundfläche NGF",
  "ui_units_calculation": "Berechnung der Einheiten",
  "ui_green_areas_calculation": "Berechnung der Grünflächen Gü",
  "ui_parking_lots_calculation": "Kalkulierung von Stellplätzen (Stp)",
  "ui_add_new_land_use": "Neuen Flächenplan erstellen",
  "ui_name": "Name",
  "ui_add": "Hinzufügen",
  "ui_ok": "OK",
  "ui_delete": "Löschen",
  "ui_cancel": "Abbrechen",
  "ui_delete_land_use": "Flächenplan löschen",
  "ui_new_name": "Neue Bezeichnung",
  "ui_land_use_delete_message": "Der Standard Flächenplan wird den Objekten des aktuellen Flächenplanes zugeordnet.<br><br> Achtung=> Dieser Befehl lässt sich nicht rückgängig machen.",
  "ui_urban_control_land_use": {
    "short": "Urbane Kontrolle des Flächenplanes",
    "long": null
  },
  "ui_net_floor_area": "Nettogrundfläche",
  "ui_required_green_area": {
    "short": "Benötigte Grünflächen",
    "long": null
  },
  "ui_gross_plot_area": "Brutto Grundstücksfläche",
  "ui_built_area_factor": "Bauflächen Faktor",
  "ui_number_of": "Anzahl von",
  "ui_internal": "Innen",
  "me_can_not_remove_default_land_use": "Die Flächennutzung, die Sie zu löschen versuchen, ist als Standarteinstellung zum Plotten gesetzt.<br><br>Benutzen Sie eine andere Fläche zur Plotteinstellung und wiederholen Sie den Vorgang.",
  "ui_loading_modelur": "Modelur wird geladen",
  "ui_initialize_modelur": "Initialisiere Modelur",
  "ui_create_building": "Gebäude erstellen",
  "ui_toggle_built_area_visibility": {
    "short": "Zeig bebauten Flächen",
    "long": "Show built-up area face at the bottom of each Modelur Building."
  },
  "ui_toggle_terraces_and_loggias": {
    "short": "Mark Terrassen und Loggien",
    "long": "Apply green color to all terraces and pink color to all loggias."
  },
  "ui_optimize_buildings_for_GE": "Gebäude für Google Earth optimieren",
  "ui_ready": "Bereit",
  "ui_start_modelur_and_open_ui": "Start Modelur und Benutzeroberfläche öffnen",
  "ui_convert_selected_polygon_to_modelur_building": "Ausgewählte Polygone in Modelur Gebäude konvertieren",
  "ui_layer": "Ebene",
  "ui_default_building_shape": {
    "short": "Standard Gebäudeform",
    "long": "Shape of newly created building in case no face is selected"
  },
  "ui_square": "Quadrat",
  "ui_circle": "Kreis",
  "ui_L_shape": "L-Form",
  "ui_whole_plot": "Projektgebiet",
  "ui_export": "Export",
  "ui_show_tutorials": {
    "short": "Online Schulungs Videos",
    "long": null
  },
  "ui_show_news": "Was gibt's Neues",
  "ui_building_name": "Name des Gebäudes"
}