{
  "ui_unit": {
    "meters": "m",
    "feet": "ft"
  },
  "ui_squareUnit": {
    "meters": "m²",
    "feet": "ft²"
  },
  "ui_cubicUnit": {
    "meters": "m³",
    "feet": "ft³"
  },
  "ui_currency_symbol": "Símbolo da Moeda",
  "ui_percent": "%",
  "ui_empty": "",
  "ui_residentsPerHectare": {
    "short": "res./ha",
    "long": null
  },
  "ui_file": "Arquivo",
  "ui_open": "Abrir…",
  "ui_save": "Salvar",
  "ui_saveAs": "Salvar como",
  "ui_import": "Importar",
  "ui_exportUrbanDesignControlValues": "Exportar valores de controle de projeto urbano…",
  "ui_tools": "Ferramentas",
  "ui_options": "Opções",
  "ui_translation": "Tradução",
  "ui_customize_ui_text": "Personalizar o Texto da IU",
  "ui_find_text_to_edit": "Localizar Texto para Traduzir/Editar",
  "ui_change_text_to": "Alterar o Texto para",
  "ui_buildingHeight": "Altura edificaçăo",
  "ui_built_up_area": "Área de Solo Construída",
  "ui_language": "Idioma",
  "ui_saveDefaultSettings": {
    "short": "Salvar configuração padrão",
    "long": "This will set all your current settings as defaults, which are used every time you initialize new Modelur model."
  },
  "ui_help": "Ajuda",
  "ui_plotParameters": "Parâmetros do terreno",
  "ui_plotArea": "Área do lote",
  "ui_allowed_FAR": {
    "short": "Índice de Aproveitamento proposto",
    "long": null
  },
  "ui_allowed_site_coverage": {
    "short": "Índice de Aproveitamento proposto",
    "long": null
  },
  "ui_allowed_building_height": {
    "short": "Altura perm. de edificaçăo",
    "long": null
  },
  "ui_permitted_FAR": "Índice de Aproveitamento Máximo",
  "ui_permitted_building_height": "Altura Máxima",
  "ui_min": "Min",
  "ui_max": "Max",
  "ui_defaultBuildingParameters": "Parâmetros de Edificaçăo Padrăo",
  "ui_numberOfStoreys": "Número de pavimentos",
  "ui_firstStoreyHeight": "Altura pavimento térreo",
  "ui_otherStoreysHeight": "Altura outros pavimentos",
  "ui_minDistanceBetweenBuildings": {
    "short": "Dist. mín. entre edificações",
    "long": "Distância mínima entre edificações"
  },
  "ui_parkingLots": "Estacionamentos",
  "ui_building": "Edifício ",
  "ui_create": "Criar",
  "ui_restoreDefault": "Restaurar",
  "ui_selectedBuildingParameters": "Parâmetros do Edifício selecionado",
  "ui_editingModesOfBuilding": "Ediçăo de parâmetros construtivos",
  "ui_preserveBuiltArea": "Manter Área de Solo Construída ao escalar manualmente",
  "ui_survey": "Pesquisa",
  "ui_surveyOfSelectedBuilding": "Pesquisa edifícios selecionados",
  "ui_basic": "Básico",
  "ui_full": "Completo",
  "ui_surveyOfPlotArea": "Pesquisa área terreno",
  "ui_warnings": "Avisos",
  "ui_tooLowDistanceBetweenBuildings": "Distância entre edifícios muito pequena",
  "ui_plotAreaUrbanControl": "Normativa urbana - Área",
  "ui_floorSpaceIndex": "Índice de Aproveitamento",
  "ui_floorSpaceIndexValue_plot": null,
  "ui_grossFloorAreaValue_plot": null,
  "ui_builtAreaValue_plot": null,
  "ui_buildingFactorValue_plot": null,
  "ui_recommendedNumberOfParkingLotsValue_plot": null,
  "ui_grossFloorAreaUnderground": {
    "short": " Subsolo ABC",
    "long": " Subsolo Área Bruta Construída"
  },
  "ui_grossFloorAreaUndergroundValue_plot": null,
  "ui_averageNumberOfStoreysValue_plot": null,
  "ui_expectedNumberOfParkingLotsUnderground": {
    "short": "Número esperado de VE",
    "long": "Número esperado de Vagas de Estacionamento"
  },
  "ui_expectedNumberOfParkingLotsUndergroundValue_plot": null,
  "ui_requiredGreenSurfaceAreas_plot": null,
  "ui_populationDensity_plot": null,
  "ui_selectedBuildingUrbanControl": {
    "short": "Normativa urbana – edifício selecionado",
    "long": null
  },
  "ui_buildingHeightValue_building": null,
  "ui_numberOfStoreysValue_building": null,
  "ui_recommendedNumberOfParkingLotsValue_building": null,
  "ui_buildingVolume": "Volume de Edificaçăo",
  "ui_buildingVolumeValue_building": null,
  "ui_residentialAreaValue_building": null,
  "ui_serviceAreaValue_building": null,
  "ui_industryAreaValue_building": null,
  "ui_buildingExpectedNumberOfDwellingsValue_building": null,
  "ui_expectedNumberOfWorkplacesValue_building": null,
  "ui_numberOfResidents_building": null,
  "ui_buildingEnvelope": "Área da superfície externa",
  "ui_warning": "Aviso",
  "ui_dialogOkButton": "Fechar",
  "ui_dialogCancelButton": "Cancelar",
  "ui_dialogApplyButton": "Aplicar",
  "er_modelurServerUnavailable": "Validação online falhou.<br><br>Por favor verifique sua conexão e tente novamente em alguns minutos.",
  "ui_minDistanceBetweenBuildingsRatio": {
    "short": "Relação dist. min. de altura",
    "long": "Relação distância mínima de altura"
  },
  "ui_minDistanceBetweenBuildingsPercent": "Percentagem da altura do edifício ",
  "ui_percentOfUsableGrossFloorArea": {
    "short": "Perc. de ABC util.",
    "long": "Percentual de Área Bruta Construída utilizável"
  },
  "ui_terraceFloorAreaPercent": {
    "short": "Terraço ABC percentual",
    "long": "Terraço Área Bruta Construída percentual"
  },
  "ui_loggiaFloorAreaPercent": {
    "short": "Pórtico ABC percentual",
    "long": "Pórtico Área Bruta Construída percentual"
  },
  "ui_buildingID": "Identificador do edifício",
  "ui_meters": "metros",
  "ui_feet": "pés",
  "ui_GFA": {
    "short": "ABC",
    "long": "Área Bruta Construída"
  },
  "ui_NFA": {
    "short": "AL",
    "long": "Área Líquida"
  },
  "ui_GA": {
    "short": "AV",
    "long": "Áreas Verdes"
  },
  "ui_parking_lot": "Estacionamento",
  "ui_PL": {
    "short": "VE",
    "long": "Estacionamento"
  },
  "ui_sync_land_use_panels": {
    "short": "Sincronizar tabelas de Uso do Solo",
    "long": "Keep Land Use panels between Input data and Survey tab in sync."
  },
  "ui_land_use": "Uso do Solo",
  "ui_color": "Cor",
  "ui_first_unit": "1ª unidade",
  "ui_second_unit": "2ª unidade",
  "ui_NFA_factor_internal": {
    "short": "AL Interna",
    "long": "Área Líquida Interna"
  },
  "ui_NFA_factor_terrace": {
    "short": "AL Sacada",
    "long": "Área Líquida Sacada"
  },
  "ui_NFA_factor_loggia": {
    "short": "AL Pórtico",
    "long": "Área Líquida Pórtico"
  },
  "ui_unit1": {
    "singular": {
      "apartment": "Apatamento",
      "office": "Escritório",
      "room": "Sala",
      "classroom": "Sala de aula",
      "department": "Departamento",
      "hall": "Hall",
      "workshop": "Oficina",
      "shop": "Loja",
      "parking_lot": "Estacionamento",
      "na": "Não disponível"
    },
    "plural": {
      "apartment": "Apartmentos",
      "office": "Escritórios",
      "room": "Salas",
      "classroom": "Salas de aula",
      "department": "Departamentos",
      "hall": "Halls",
      "workshop": "Oficinas",
      "shop": "Lojas",
      "parking_lot": "Estacionamentos",
      "na": "Não disponível"
    }
  },
  "ui_unit2": {
    "singular": {
      "resident": "Residente",
      "employee": "Funcionário",
      "guest": "Hóspede",
      "student": "Estudante",
      "child": "Criança",
      "workplace": "Local de trabalho",
      "chair": "Cadeira",
      "bed": "Cama",
      "car": "Carro",
      "na": "Não disponível"
    },
    "plural": {
      "resident": "Residentes",
      "employee": "Funcionários",
      "guest": "Hóspedes",
      "student": "Estudantes",
      "child": "Crianças",
      "workplace": "Locais de trabalho",
      "chair": "Cadeiras",
      "bed": "Camas",
      "car": "Carros",
      "na": "Não disponível"
    }
  },
  "ui_units": "Unidades",
  "ui_op_divide": "por",
  "ui_NFA_calculation": "Cálculo da Area Líquida (AL)",
  "ui_units_calculation": "Cálculo de Unidades",
  "ui_green_areas_calculation": "Cálculo de Areas Verdes (AV)",
  "ui_parking_lots_calculation": "Cálculo de Estacionamentos (VE)",
  "ui_add_new_land_use": "Acrescente novo Uso do Solo",
  "ui_name": "Nome",
  "ui_add": "Acrescentar",
  "ui_ok": "OK",
  "ui_delete": "Apagar",
  "ui_cancel": "Cancelar",
  "ui_delete_land_use": "Apagar Uso do Solo",
  "ui_new_name": "Novo nome",
  "ui_land_use_delete_message": "Uso do Solo padrão será atribuído aos objetos com o Uso do Solo atual.<br><br> Aviso=> esta operação não é reversível.",
  "ui_urban_control_land_use": {
    "short": "Controle urbano - Uso do Solo",
    "long": null
  },
  "ui_net_floor_area": "Área Líquida",
  "ui_required_green_area": {
    "short": "Área Verde Mínima",
    "long": null
  },
  "ui_gross_plot_area": "Área Bruta de Terreno",
  "ui_built_area_factor": "Índice de Área de Solo Construída",
  "ui_number_of": "Número de",
  "ui_internal": "interna",
  "me_can_not_remove_default_land_use": "O Uso do Solo que você está tentando apagar foi definido como padrão para o Terreno Total.<br><br> Se você ainda quiser deletá-lo, substitua-o por outro Uso do Solo e tente novamente.",
  "ui_loading_modelur": "Carregando Modelur",
  "ui_initialize_modelur": "Inicializar Modelur",
  "ui_create_building": "Criar edifício",
  "ui_toggle_built_area_visibility": {
    "short": "Mostrar Área de Solo Construída",
    "long": "Show built-up area face at the bottom of each Modelur Building."
  },
  "ui_toggle_terraces_and_loggias": {
    "short": "Marcar Sacadas e Pórticos",
    "long": "Apply green color to all terraces and pink color to all loggias."
  },
  "ui_optimize_buildings_for_GE": "Otimizar edifícios para o Google Earth",
  "ui_ready": "Pronto",
  "ui_start_modelur_and_open_ui": "Iniciar Modelur e abrir a interface de usuário",
  "ui_convert_selected_polygon_to_modelur_building": "Converter o polígono selecionado a Edifício Modelur",
  "ui_layer": "Camada",
  "ui_default_building_shape": {
    "short": "Forma de construção padrão",
    "long": "Shape of newly created building in case no face is selected"
  },
  "ui_square": "quadrado",
  "ui_circle": "Círculo",
  "ui_L_shape": "Em forma de L",
  "ui_whole_plot": "Todo Terreno",
  "ui_export": "Exportar",
  "er_modelur_model_can_not_be_updated": "A versão atual de Modelur não é compatível retroativamente com a que você está abrindo. <br><br>Se você desejar continuar a trabalhar parametricamente neste modelo é necessário reverter Modelur à versão em que foi criado ou reconstruí-lo usando a versão atual de Modelur. <br><br>Se necessitar de ajuda, por favor entre em contato com o suporte de Modelur.",
  "ui_show_tutorials": {
    "short": "Mostrar tutoriais em vídeo online",
    "long": null
  },
  "er_building_errors_found": "Modelur encontrou Edifícios corrompidos que não podem ser reparados automaticamente. Eles estão marcados com uma cor de advertência (o padrão é o vermelho).<br><br>Se desejar continuar trabalhando parametricamente nos edifícios marcados, por favor recrie-os.",
  "ui_show_status_bar": {
    "short": "Mostrar barra de status",
    "long": "Ative ou desative a barra de status, se não desejar ver sugestões e texto extenso para certos comandos e parâmetros quando passar o cursor sobre texto."
  },
  "ui_update_modelur_from_su_ew": {
    "short": "Atualize Modelur a partir da SU EW",
    "long": "Atualize Modelur a partir da Extension Warehouse"
  },
  "ui_restoreDefaults": {
    "short": "Restaurar configurações padrão",
    "long": "Reiniciar Modelur com configurações padrão. Após fazer isso, por favor reinicie Sketchup + Modelur."
  },
  "ui_set_length_of_x_coordinate": {
    "feet": "Definir a largura do mapa paramétrico em pés",
    "meters": "Definir a largura do mapa paramétrico em metros"
  },
  "ui_show_news": "O que há de novo?",
  "ui_show_changelog": "Registro de mudanças",
  "ui_building_name": "Nome do edifício ",
  "ui_create_buildings_from_edges": {
    "short": "Criar Edifícios a partir de arestas",
    "long": "Informar o Modelur se e como deveria criar Edifícios quando arestas são selecionadas."
  },
  "ui_dont_create": {
    "short": "Não criar",
    "long": "Nenhum edifício será criado a partir das arestas selecionadas."
  },
  "ui_one_edge": {
    "short": "Uma aresta",
    "long": "Edifício será criado se ao menos uma aresta do contorno planar fechado for selecionada."
  },
  "ui_all_edges": {
    "short": "A partir de um contorno planar fechado",
    "long": "O Edifício será criado somente se todas arestas do conjunto forem selecionadas."
  },
  "ui_visit_knowledgebase": {
    "short": "Visite nossa Base de Informação",
    "long": "Dúvidas? Visite a Base de Informação do Modelur!"
  },
  "ui_submit_ticket": {
    "short": "Envie uma consulta",
    "long": "Informe-nos de um bug ou solicite alguma funcionalidade nova."
  },
  "ui_activate_modelur": "Ativar Modelur",
  "ui_randomizeBuildingHeights": "Altura aleatória dos Edifícios ",
  "ui_absoluteNumberOfStoreys": "Número absoluto de pavimentos",
  "ui_relativeNumberOfStoreys": "Número relativo de pavimentos",
  "ui_place_buildings_on_terrain": "Coloque os Edifícios no terreno selecionado",
  "ui_create_mixed_use_building": "Criar Edifício de Uso Misto",
  "ui_create_complex_building_description": "Criar Edifício Complexo/de Uso Misto a partir dos Edifícios Modelur selecionados",
  "er_randomizeBuildingHeightsFailed": "Definição de alturas aleatórias falhou porque nenhum edifício foi selecionado. Por favor, selecione algum edifício e clique em Tentar Novamente ou Abortar operação.",
  "ui_mixed_use_ratio": "Proporção de Uso Misto",
  "ui_mixedUseBuilding": "Edifício de uso mixto",
  "ui_remove": "Remover",
  "ui_edit": "Editar",
  "ui_create_CB_automatically": {
    "short": "Criar Edifício de Uso Misto automaticamente",
    "long": "Criar (ou destruir) Edifício de Uso Misto automaticamente quando um Edifício Modelur for colocado sobre outro (ou removido)."
  },
  "ui_preserve_height_when_adding_CB_part": {
    "short": "Preservar altura dos edifícios quando acrescentar/remover partes",
    "long": "Manter a altura de Edifício de Uso Misto quando uma nova parte de Edifício for acrescentada a ele ou removida."
  },
  "ui_adjust_parts_positions_on_CB_create": {
    "short": "Ajustar Edifícios quando criar Edifício de Uso Misto",
    "long": "Ajustar a posição da parte de baixo do Edifício à parte de cima."
  },
  "ui_adjust_storey_heights_on_CB_create": {
    "short": "Ajustar os pés-direitos quando criar Edifício de Uso Misto",
    "long": "Fazer concordar todos os pés-direitos com a especificação do primeiro e das demais alturas."
  },
  "me_land_use_not_assigned": "O Uso do Solo atribuído a alguns Edifícios não existe neste modelo. Onde for o caso, será substituído pelo uso padrão.",
  "ui_modelur_is_offline_cant_contact_license_server": "Modelur não está conseguindo conexão com o servidor de licenças para obter ou atualizar e validar a sua licença. Por favor, verifique se sua conexão está funcionando e tente novamente, clicando em Continuar.",
  "ui_update_license": "Atualize a licença do Modelur",
  "ui_enter_your_license_key": "Insira o número da sua licença para liberar todos os recursos do Modelur ou atualize a licença atual.",
  "er_outside_licensed_network": "Sua cópia do Modelur não pode ser usada fora da rede licenciada. Verifique se está dentro da rede para a qual esta cópia do Modelur está licenciada. Caso o problema persistir, entre em contato com o seu administrador de IT.",
  "ui_send_request": "Enviar solicitação",
  "ui_purchase_Modelur": "Compre Modelur",
  "er_unable_to_refresh_seat_reservation": "Não foi possível atualizar suas reservas de uso..<br><br>Verifique sua conexãp à Internet e tente novamente dentro de alguns minutos.<br><br>Se o problema persistir contate o suporte pelo %{link_support_email}.",
  "me_license_seat_could_not_be_released": "Modelur não conseguiu liberar imediatamente o seu uso da licença flutuante. Espere alguns minutos para o Modelur liberar o uso automaticamente, para que possa ser usado por outra pessoa.",
  "ui_primary_unit_type": "Tipo Unidade Primária",
  "ui_secondary_unit_type": "Tipo Unidade Secundária",
  "ui_construction_date": "Ano de construção",
  "ui_demolition_date": "Ano de demolição",
  "ui_current_date": "Data atual",
  "ui_min_date": "Data mínima",
  "ui_max_date": "Data máxima",
  "ui_development_timeline": "Cronograma de Desenvolvimento",
  "ui_user_guide": {
    "short": "Guia do Usuário",
    "long": null
  },
  "ui_add_land_use_data_to_area_sum": {
    "short": "Adicionar estes valores de Uso do Solo à soma total",
    "long": "Levar em conta este Uso do Solo quando calcular valores agregados ao Lote Inteiro (por ex. Área Construída Bruta)."
  },
  "ui_add_only_parking_data_to_sum": {
    "short": "Somente adicionar valores de Estacionamento à soma total",
    "long": "Somente use os valores de estacionamento deste Uso do Solo quando calcular valores agregados de Quarteirões Urbanos e Área Total do Lote."
  },
  "ui_average_parking_area": {
    "short": "Área de Estacionamento Média",
    "long": "Quanta área bruta cada vaga de estacionamento ocupa na média?"
  },
  "ui_parking_lots_deficit": "Déficit de Vagas de Estacionamento",
  "ui_required_parking_area": "Área de Estacionamento Exigida",
  "ui_check_for_updates": {
    "short": "Verificar atualização…",
    "long": null
  },
  "ui_latest_version_installed": "A versão instalada é a mais recente.",
  "ui_could_not_check_latest_version": "Modelur não conseguiu obter informações sobre a versão mais recente. Por favor, verifique a sua conexão e tente novamente mais tarde.",
  "ui_open_urban_control_data_table": "Abrir a Tabela de Dados de Controle Urbano",
  "ui_show_license_info": {
    "short": "Mostrar Dados da Licença",
    "long": null
  },
  "ui_license_key": "Número da Licença",
  "ui_expiration_date": "Data de Validade",
  "ui_license_doesnt_exist": "Essa licença do Modelur não existe.",
  "ui_create_city_block": "Criar Quarteirão Urbano",
  "ui_create_city_block_description": "Converter os polígonos selecionados ou conjunto fechado de arestas em Quarteirões Urbanos do Modelur.",
  "ui_selected_city_block_parameters": {
    "short": "Parâmetros de Quarteirão Urbano selecionados",
    "long": "Aqui pode-se alterar Parâmetros de todos os Quarteirões Urbanos selecionados. Se nenhum Quarteirão Urbano estiver selecionado, as alterações afetarão os Quarteirões Urbanos de Edifícios selecionados."
  },
  "ui_city_block": "Quarteirão Urbano",
  "ui_selected_city_block_urban_control": {
    "short": "Controle Urbano - Quarteirão",
    "long": "Here podem ser vistos os valores do último Quarteirão Urbano selecionado. Se nenhum Quarteirão estiver selecionado, este painel mostrará os valores referentes ao Quateirão do último Edifício selecionado."
  },
  "ui_city_block_area": "Área do Quateirão Urbano",
  "ui_city_block_name": "Nome do Quarteirão",
  "ui_select_all_cb": {
    "short": "Selecionar tudo",
    "long": "Selecionar todos os Quarteirões do modelo"
  },
  "ui_lock_city_blocks_upon_creation": {
    "short": "Bloquear Quarteirão após ser criado",
    "long": "Deseja bloquear automaticamente os Quarteirões após criá-los?"
  },
  "ui_colorize_city_blocks": {
    "short": "Aplicar o Material do Uso do Solo ao Quarteirão",
    "long": null
  },
  "ui_default_city_block_building_params": {
    "short": "Quarteirão Selecionado - Parâmetros de Edificação",
    "long": "Parâmetros de Edificação Padrão de todos os Quarteirões Selecionados. Se nenhum Quarteirão estiver selecionado, os parâmetros se aplicam aos quarteirões dos edifícios selecionados."
  },
  "ui_site_limits": "Limites gerais do terreno",
  "ui_city_blocks": "Quarteirões",
  "ui_buildings": "Edifícios ",
  "ui_default_land_use": "Uso do Solo Padrão",
  "ui_city_block_survey": {
    "short": "Pesquisa de Quarteirões",
    "long": "Mostra os Parâmetros de Controle Urbano do último Quarteirão selecionado"
  },
  "ui_whole_plot_area": "Área Total do Lote",
  "ui_investment_calculation": "Cálculo de Investimento",
  "ui_assessed_investment": "Investimento estimado",
  "ui_assessed_income": "Ingresso estimado",
  "ui_building_height": "Altura dos edifícios ",
  "ui_min_distances": "Distância mínimas",
  "ui_sync_cb_params": {
    "short": "Sync",
    "long": "Sincronizar Parâmetros dos Quarteirões"
  },
  "ui_other": "Outro",
  "me_missing_name": "Por favor, insira o seu nome.",
  "ui_send_to_excel": "Enviar dados do Modelur para Excel",
  "ui_send_to_excel_statusbar": "Apresentação e atualização em tempo real dos dados do modelo atual em Excel.",
  "ui_store_LU_changes": {
    "short": "Salvar alterações no Uso do Solo",
    "long": "Salvar automaticamente alterações no Uso do Solo para poder intercambiar especificações de Uso do Solo entre modelos SKP diferentes (por exemplo, quando copiar um Edifício com Uso do Solo fora do padrão de um modelo para outro)."
  },
  "ui_sum_of_selected": "Soma dos selecionados",
  "ui_sum_of_selected_buildings": "Soma dos edifícios selecionados",
  "ui_dont_warn_about_unoffical_languages": "Não me avise mais sobre idiomas não oficiais",
  "ui_dont_show_this_notice": "Não mostrar mais este aviso",
  "ui_calculate_FAR_based_on": {
    "short": "Calcular o IAM (Índice de Aproveitamento Máximo) com base em",
    "long": "Diga ao Modelur se ele deve calcular a IAM com base na área bruta ou líquida."
  },
  "ui_sync_layer": {
    "short": "Sincronizar a camada do Edifício",
    "long": "Ao alterar a camada do Edifício, altere também a camada de entidades (arestas e faces)."
  },
  "ui_per_storey": "por Pavimento",
  "ui_calculate_form_factor": {
    "short": "Calcular o Coeficiente Formal do Edifício",
    "long": "Calcular o Coeficiente Formal, a relação entre a Superfície e o Volume e a Área do Envoltório do último Edifício selecionado. Observe que esta função ainda é experimental e que pode não funcionar de forma consistente se usada em Edifícios Complexos cujas partes não estão bem alinhadas."
  },
  "ui_add_geolocation_for_gis_import": "Certifique-se de definir sua localização antes de usar a funcionalidade de importação GIS / OSM do Modelur. <br> <br> Você pode fazer isso via: <br> Arquivo> Geo-localização> Adicionar localização… <br> <br> Depois de definir sua localização, você poderá importar dados de geolocalização.",
  "ui_import_gis_data": {
    "short": "Importar dados GIS",
    "long": "Importar arquivo SHP ou GeoJSON. Por enquanto, precisa estar em WGS84."
  },
  "ui_download_osm_buildings": {
    "short": "Baixe os edifícios OSM 3D",
    "long": "Baixe os edifícios do OpenStreetMaps como volumes. Observe que os dados dos edifícios são fornecidos pela comunidade e não verificados."
  },
  "ui_download_osm_morhpology": {
    "short": "Baixe o OSM 2D Urban Morphology",
    "long": "Baixe os edifícios do OpenStreetMaps como plantas 2D em preto e branco."
  },
  "ui_export_gis": "Exportar para GeoJSON",
  "i18n_gis_data_import": "Importação de Dados GIS",
  "i18n_parameter_mapping": "Mapeamento de parâmetros",
  "i18n_import_as": "Importar como",
  "i18n_modelur_buildings": "Edifícios Modelur",
  "i18n_building_volumes": "Volumes de Edifícios ",
  "i18n_x_offset": "Equidistância (offset) em relação ao eixo X",
  "i18n_y_offset": "Equidistância (offset) em relação ao eixo Y",
  "i18n_land_use_mapping": "Mapeamento do Uso do Solo",
  "i18n_export_mapping": "Exportação de Mapeamento…",
  "i18n_import_mapping": "Importação de Mapeamento…",
  "i18n_import_as_modelur_buildings": "Importar como Edifícios Modelur",
  "i18n_import_as_modelur_complex_buildings": "Importar como edifícios Complexos Modelur",
  "i18n_import_as_simple_building_volumes": "Importar como Volumes Simples de Edifícios ",
  "i18n_import_as_city_blocks": "Importar como Quarteirões Modelur",
  "i18n_import_as_trees": "Importar como Árvores",
  "i18n_import_as_waste_bins": "Importar como Latas de Lixo",
  "i18n_built_area": "Área Construída",
  "i18n_gis_uuid": "Identificador Único Universal GIS (UUID)",
  "i18n_parent_building_id": "Identificador (ID) do Edifício Principal",
  "i18n_tree_height": "Altura das Árvores",
  "i18n_tree_species": "Espécies das Árvores",
  "i18n_bin_height": "Altura da Lata de Lixo",
  "i18n_notification": "Notificação",
  "i18n_gis_data_import_filepath": "Abrir arquivo GIS",
  "i18n_import_mapping_settings": "Importar configurações de mapeamento",
  "i18n_wrong_mjson_digest": "Parece que seu arquivo de mapeamento (MJSON), que está armazenado próximo ao seu arquivo GIS, foi editado fora do Modelur. Isso pode causar erros se o arquivo não for editado corretamente.",
  "i18n_ground_to_sea_level": "Diferença do Nível do Solo para o Nível do Mar",
  "i18n_eave_to_sea_level": "Diferença do Nível do Beiral para o Nível do Mar",
  "i18n_z_value": "Valor em Z",
  "i18n_road_width": "Largura da Rua",
  "i18n_road_profile": "Perfil da Rua",
  "i18n_road_classification": "Classificação das Ruas",
  "i18n_rail_width": "Largura de Trilho",
  "i18n_tube_diameter": "Diâmetro do Tubo",
  "i18n_tube_profile": "Perfil do Tubo",
  "i18n_tube_color": "Cor do Tubo",
  "i18n_distance_to_surface": "Distância até a superfície",
  "i18n_tube_line": "Linha do Tubo",
  "i18n_pipe_diameter": "Diâmetro do Cano",
  "i18n_pipe_profile": "Perfil do Cano",
  "i18n_pipe_color": "Cor do Cano",
  "i18n_import_as_terrain": "Importar como Topografia",
  "i18n_import_as_underground_pipes": "Importar como Canos Subterrâneos",
  "i18n_import_as_metro": "Importar como Metrô",
  "i18n_import_as_road_axes": "Importar como Eixos de Ruas",
  "i18n_gis_preferences": "Preferências GIS",
  "i18n_generate_missing_land_uses": "Gerar Usos do Solo ausentes",
  "ask": "Perguntar",
  "i18n_save_file_before_geojson_export": "Para exportar dados para GeoJSON, seu modelo SKP precisa ser salvo primeiro. <br><br>Deseja salvar seu arquivo agora?",
  "i18n_geojson_export_failed": "A exportação para GeoJSON falhou!",
  "i18n_geojson_export_succeeded": "Exportado para GeoJSON com sucesso, novos arquivos são salvos ao lado de seu modelo SKP.",
  "i18n_complex_building_level": "Nível do Edifício Complexo",
  "i18n_parent_building_uid": "Identificador Universal (UID) do Edifício Principal",
  "i18n_ground_to_sea": "Diferença de cota de nível entre o solo e o mar",
  "i18n_eave_to_sea": "Diferença de cota de nível entre o beiral e o mar",
  "ui_generate_cb": {
    "short": "Gerar",
    "long": "Gerar edifícios Modelur aleatórios em quarteirões selecionados"
  },
  "me_non_empty_city_blocks": "Alguns dos quarteirões selecionados contém edifícios. Para gerar um novo empreendimento em um quarteirão com edifícios existentes, você precisa excluir ou ocultar os edifícios existentes.",
  "me_select_city_blocks_to_generate": "Selecione um ou mais Quarteirões para gerar Edifícios.",
  "me_select_city_blocks_to_clear": "Para eliminar edifícios, selecione um ou mais quarteirões.",
  "i18n_distance_between_buildings": "Distância entre Edifícios ",
  "i18n_minimum_building_width": "Mínima Largura do Edifício ",
  "i18n_maximum_building_width": "Máxima Largura do Edifício ",
  "i18n_maximum_building_length": "Comprimento Máximo do Edifício ",
  "i18n_mix_of_uses": "Usos Mistos",
  "i18n_clear_buildings": "Eliminar Edifícios ",
  "i18n_generate": "Gerar",
  "ui_massing_generator": {
    "short": "Gerador Volumétrico",
    "long": null
  },
  "ui_save_as_legacy": "Salvar no formato antigo do Modelur (Legacy) …",
  "i18n_unknown_error": "Erro desconhecido! Entre em contato com o suporte modelur em %{link_support_email}.",
  "i18n_modelur_error": "Erro do Modelur"
}