{
  "ui_degree": "°",
  "ui_heightRatio": "h/x",
  "ui_residential": "Residencial",
  "ui_service": "Serviço",
  "ui_industry": "Indústria",
  "ui_menu": null,
  "ui_export3DModel": "Exportar modelo…",
  "ui_addTerrain": "Criar terreno",
  "ui_saveDefaultParameters": "Salvar Parâmetros Padrão",
  "ui_visitWebsite": "Visite website",
  "ui_aboutSoftware": "Sobre…",
  "ui_inputData": "Inserir dados",
  "ui_permitted_coverage": "Taxa de Ocupação Máxima",
  "ui_more": "Mais",
  "ui_buildingHeights": "Altura edificaçăo",
  "ui_grossFloorAreas": "Áreas Construídas Brutas",
  "ui_distances": "Distâncias",
  "ui_copy": "Copiar",
  "ui_libraryOfFloorPlanShapes": "Biblioteca de configurações planimétricas",
  "ui_icon": "Ícone",
  "ui_find": "Localizar",
  "ui_preserveLastManualTransformation": "Preservar última transformação manual quando alterar parâmetro",
  "ui_assumeDefaultFloorPlanArea": "Planta inserida manualmente adota área de ocupação padrăo",
  "ui_urbanControlSurveyOnScreen": "Pesquisa controles urbanos na tela",
  "ui_urbanControlOverdraw": "Controle urbano excedido",
  "ui_basicUrbanControl": "Normativa urbana básica",
  "ui_floorSpaceIndexValue_plot": null,
  "ui_grossFloorAreaValue_plot": null,
  "ui_builtAreaValue_plot": null,
  "ui_buildingFactorValue_plot": null,
  "ui_additionalUrbanControl": "Normativa urbana aditional",
  "ui_recommendedNumberOfParkingLots": "Número recomendado de Vagas de Estacionamento",
  "ui_recommendedNumberOfParkingLotsValue_plot": null,
  "ui_grossFloorAreaUndergroundValue_plot": null,
  "ui_averageNumberOfStoreysValue_plot": null,
  "ui_experimentalUrbanControl": "Normativa urbana experimental",
  "ui_expectedNumberOfParkingLotsUndergroundValue_plot": null,
  "ui_requiredGreenSurfaceAreas_plot": null,
  "ui_populationDensity": "Densidade Populacional",
  "ui_populationDensity_plot": null,
  "ui_buildingHeightValue_building": null,
  "ui_numberOfStoreysValue_building": null,
  "ui_recommendedNumberOfParkingLotsValue_building": null,
  "ui_volume": "Volume",
  "ui_buildingVolumeValue_building": null,
  "ui_residentialAreaValue_building": null,
  "ui_serviceAreaValue_building": null,
  "ui_industryAreaValue_building": null,
  "ui_buildingExpectedNumberOfDwellingsValue_building": null,
  "ui_expectedNumberOfWorkplacesValue_building": null,
  "ui_numberOfResidents": "Nº habitantes",
  "ui_numberOfResidents_building": null,
  "ui_outputModel": "Modelo resultante",
  "ui_buildingColors": "Cores Edificaçőes",
  "ui_general": "Geral",
  "ui_useOnlyGeneralColor": "Usar somente cor genérica",
  "ui_showIn3DWindow": "Mostrar na janela 3D",
  "ui_basement": "Porão",
  "ui_windowTitle": "Modelur Pré-beta",
  "ui_initializationMessage": "Iniciando interface de usuário.<br>Por favor aguarde…",
  "ui_dialogDefaultMessageTitle": "Notificação",
  "ui_dialogDefaultErrorTitle": "Erro!",
  "er_suVersionNotCompatible": "A sua versăo do Sketchup năo é compatível com a versăo de Modelur sendo usada.<br><br>Por favor, visite <a type=\"link\" style=\"color:RoyalBlue\" onclick=\"modelur.engine.triggerAction('trg_visit_website');\">www.modelur.com</a> para obter a versăo mais atualizada de Modelur.",
  "er_validateModelurOnline": " A validaçăo online de Modelur năo foi possível.<br><br>Por favor, verifique se está conectado à Internet pois Modelur năo funciona completamente sem conexăo. Depois de estar conectado, por favor reinicie Sketchup.",
  "me_modelurNewerVersionAvailable": "Uma versăo mais nova de Modelur está disponível.<br><br>Você pode fazer o download em <a type=\"link\" style=\"color:RoyalBlue\" onclick=\"modelur.engine.triggerAction('trg_visit_website');\">www.modelur.com</a>.",
  "me_recommendInternetExplorerUpdate": "Você está usando o Internet Explorer 6 ou anterior.<br><br>Para obter o melhor desempenho possível, recomenda-se atualizar para a versão 7 ou posterior.",
  "me_recommendSafariUpdate": "Você está usando o Safari 2 ou anterior.<br>Para obter o melhor desempenho possível, recomenda-se atualizar para a versão 3.0 ou posterior.",
  "ui_otherNormatives": "Outras normativas",
  "ui_dialogContinueButton": "Continuar",
  "ui_openTerrainTexture": "Abrir textura terreno",
  "ui_saveCsvFile": "Salvar arquivo .csv",
  "er_selectAFace": "Para aplicar uma textura, primeiro selecione uma face.",
  "er_invalidFilepath": "O nome do arquivo ou seu caminho inclui caracteres não-ascii. Use apenas caracteres alfa-numéricos em inglês.",
  "er_invalidSketchupTextureFileSelected": "SketchUp não aceita o tipo de imagem selecionado.<br><br>Os formatos válidos são=> .png, .jpg, .psd, .bmp, .tif e .tga.",
  "er_languageListUnavailable": "Não foi possível determinar o idioma, talvez por erro de sintaxe ou falta de lista de idiomas.<br><br> Até o problema ser resolvido, a interface usará o idioma padrão e a opção de idioma não estará disponível.",
  "me_unsupportedBrowser": "Você está usando um browser não testado com Modelur.<br><br>Para obter o melhor desempenho possível, recomenda-se utilizar o Internet Explorer 7.0 ou posterior ou Safari 3.0 ou posterior.",
  "ui_numberOfSelectedBuildings": "Número de edifícios selecionados",
  "ui_terrain": "Terreno em relevo",
  "ui_save_ui_layout": "Salvar configuração da Interface do Usuário",
  "ui_mark_terraces_and_loggias": "Marcar sacadas e pórticos com materiais",
  "ui_default_floor_plan_shape": "Configuração planimétrica padrão",
  "ui_LU_requirements": "Requisitos de Uso do Solo",
  "ui_type": "Tipo",
  "ui_residential_type": "Residencial",
  "ui_non_residential_type": "Não-residencial",
  "ui_edit_land_use": "Editar Uso do Solo",
  "ui_required_num_of_parking_lots": "Número mínimo de estacionamentos",
  "ui_gross_floor_space_index": "Índice de Área Bruta Construída",
  "ui_mean_num_of_storeys": "Número médio de pavimentos",
  "ui_of_terraces": "de sacadas",
  "ui_of_loggias": "de pórticos",
  "me_material_rename_msg": "Material de Uso do Solo só pode ser sincronizado no Sketchup 8.1 ou mais recente.<br><br> Por favor, renomeie manualmente se necessário.",
  "ui_please_wait_while_loading_modelur": "Por favor, aguarde enquanto Modelur está carregando…",
  "ui_calculate_sum_values_of_selected_buildings": "Calcular totais para os Edifícios selecionados",
  "ui_sum_values_of_selected_buildings_values": "Totais para os edifícios selecionados",
  "ui_export_edges": "Deseja exportar arestas (pavimentos visíveis)?",
  "ui_place_optimized_buildings_on_GE_terrain": "Deseja colocar edifícios otimizados no terreno em relevo do Google Earth?",
  "ui_optimized_geometry_created": "Geometria otimizada foi criada e pode ser vista ativando a camada Modelur2GE (Window > Layers).",
  "ui_su_menu_language_change_after_restart": "A versão em inglês do Modelur em Sketchup Plugins será carregada quando Suo for reiniciado.",
  "ui_copy_buildings": "Copiar edifícios selecionados",
  "ui_data_for_csv_export": "Quais conjuntos de dados que você gostaria de exportar para .csv?",
  "ui_export_window_title": "Conjunto de dados para .csv exportação.",
  "ui_select_all": "Selecionar Tudo",
  "ui_visit_forum": "Visite o Fórum",
  "ui_visit_blog": "Visite o Blog",
  "ui_modelur_on_twitter": "Modelur no Twitter",
  "er_city_block_errors_found": "Algumas quadras estão corrompidas e não podem ser reparadas automaticamente. Para identificá-las, elas receberam o prefixo \"Falha no carregamento\" (ver no Outliner/Esquema)<br><br>Se quiser continuar trabalhando com essas quadras será necessário recriá-las.",
  "ui_show_Modelur_news": "Mostrar notícias sobre Modelur",
  "ui_areYouSure": "Está certo disso?",
  "ui_modelur_move_tool": "Ferramenta Mover do Modelur",
  "ui_move_building_around": "Arrastar Edifícios Modelur pelo mapa paramétrico",
  "ui_parametric_maps": "Mapas Paramétricos",
  "ui_pm_ratio_warning": "A imagem precisa ser distorcida pois suas proporções não correspondem às do mapa. Deseja prosseguir?",
  "ui_distance": "Distância",
  "ui_invalid_length_entered": "Comprimento inválido.",
  "me_deleting_pm_face": "Apagar uma Superfície do Mapa Paramétrico desabilitará a funcionalidade dos Mapas Paramétricos. Sugestão: clique no botão Cancelar para ocultar uma Superfície. Deseja prosseguir?",
  "me_parametric_maps_online_validation": "Mapas Paramétricos só podem ser usados se Modelur for validado online.<br><br>Por favor, verifique sua conexão a Internet, reinicie Sketchup e inicie Modelur.",
  "me_su_version_high": "Embora o Modelur não tenha sido testado de modo exaustivo com o Sketchup 2015, não deve haver nenhum problema.<br><br>Caso tenha problemas, por favor nos informe e sempre atualiza a sua versão do Modelur.",
  "ui_recalculate_ucvs": "Recalcular os valores dos controles urbanos",
  "ui_whats_new": "O que há de novo?",
  "ui_dont_show_message_again": "Desligar as notificações não recorrentes quando o Modelur é atualizado.",
  "me_not_modelur_file": "O arquivo que você está abrindo ainda não foi inicializado como um modelo do Modelur. Deseja inicializá-lo como um modelo do Modelur?",
  "ui_refresh_all_ucvs_notice": "Recalcular os Valores de Controle Urbano para o modelo todo.",
  "ui_restore_default_values": "Se o Modelur não abrir, você pode tentar reiniciar as preferências usando este comando. Tão logo faça isso, por favor reinicie Sketchup + Modelur.",
  "me_please_init_modelur": "Por favor, inicialize o Modelur antes de usar qualquer ferramenta.",
  "ui_restoreDefaultsCmd": "Restaurar configurações padrão",
  "ui_applyDefaultSettings": "Para voltar às configurações padrão, por favor reinicialize Sketchup e o Modelur.",
  "ui_areYouSureToApplyDefaultSettings": "Tem certeza de que quer retornar o MOdelur às configurações padrão?",
  "me_select_complete_edge_loop": "Verifique se um contorno planar fechado foi selecionado antes de criar um Edifício.",
  "me_select_edge_with_loop": "Verifique se foi selecionada pelo menos uma aresta que faça parte de um contorno planar fechado.",
  "ui_modelur_support_center": "Centro de Suporte do Modelur",
  "ui_enter_license_token": "Para ativar o Modelur neste computador, por favor digite o código de licença recebido por email após adquirir o Modelur:",
  "er_invalid_license_token": "Seu código de licença não pode ser autenticado. Por favor, entre em contato conosco pelo email support@modelur.com.",
  "ui_welcome_to_modelur": "Bem-vindo ao Modelur Beta!",
  "ui_enter_your_code": "Digite o código da licença aqui",
  "ui_abort": "Abortar",
  "ui_retry": "Tentar novamente",
  "er_noBuldingsSelected": "Nenhum edifício selecionado",
  "me_insert_your_licence_key": "Por favor, digite seu código de licença.",
  "er_server_connection_error": "Ocorreu um erro ao conectar com o servidor. Por favor, tente novamente mais tarde…",
  "ui_see_what_is_new": "Veja o que mudou após cada atualização importante",
  "ui_missing_parametric_maps": "Os mapas paramétricos seguintes foram desabilitados porque os arquivos de imagem não foram encontrados:",
  "ui_preferences": "Preferências",
  "ui_add_part": "Acrescente parte",
  "ui_remove_part": "Remova parte",
  "me_can_not_create_building": "Não é possível criar um novo Edifício diretamente no interior de um Edifício de Uso Misto. Por favor, faça isso no arquivo onde está o seu modelo .skp. Se necessário, copie/cole o novo modelo dentro deste Edifício de Uso Misto.",
  "me_renew_license": "Sua licença do Modelur está perto de expirar [date]. Por favor, visite <a type=\"link\" style=\"color:RoyalBlue\" onclick=\"modelur.engine.triggerAction('trg_visit_website');\">www.modelur.com</a> para renová-la antes que expire.",
  "er_no_tokens_left": "Aparentemente você instalou Modelur em outro computador. Para receber licenças adicionais, por favor entre em contato conosco pelo email support@modelur.com.",
  "ui_continue": "Continue",
  "ui_nonascii_chars_path": "Infelizmente, o seu nome de usuário contém caracteres que não são ASCII e isso está impedindo que se identifique a sua licença. Por favor, ponha o arquivo modelur.lic na pasta <code>C:\\Users</code>. Depois, clique no botão abaixo.",
  "ui_done": "Feito",
  "er_unsupportedMSIE": "O Internet Explorer instalado é muito antigo e não funciona com o Modelur. O SketchUp (e Modelur) se baseia no Internet Explorer independentemente do navegador escolhido como padrão.<br><br>Para poder rodar bem o Modelur, é necessário atualizar o Explorer para a versão 10 ou posterior.",
  "me_no_buildings_to_optimize_for_GE": "Não há Edifícios do Modelur para serem otimizados pelo Google Earth. Por favor, crie primeiro alguns edifícios.",
  "er_reinstall_modelur_and_license": "Sua licença não é compatível com a versão instalada do Modelur. Verifique se está usando a versão mais recente do Modelur, com a licença correspondente. Se o problema persistir, entre em contato conosco pelo support@modelur.com.",
  "me_limited_ucv_export": "Modelur só exporta dados para 3 Quarteirões e 10 Edifícios com a sua licença. Obtenha uma licença completa para remover esta restrição.",
  "ui_ucv_export_limit_reached": "O LIMITE DA LICENÇA FOI ATINGIDO - Sua licença do Modelur só exporta dados para 3 Quarteirões e 10 Edifícios. Obtenha uma licença completa para remover esta restrição.",
  "me_land_use_limit_reached": "Modelur funciona com apenas 5 Usos do Solo em Modo Teste. Obtenha uma licença completa para ter número ilimitado de Usos do Solo.",
  "me_complex_buildings_limit_reached": "Modelur cria somente 1 Edifício Complexo (Uso Misto) em Modo Teste. Obtenha uma licença completa para remover esta restrição.",
  "me_proximity_check_limit_reached": "Checagem de proximidade dura 15 segundos em Modo Teste. Caso necessite seguir inspecionando proximidade, o recurso pode ser ativado novamente. Obtenha uma licença completa para remover esta restrição.",
  "me_randomize_heigths_limit_reached": "A randomização das alturas dos edifícios é limitada a 10 Edifícios em Modo Teste. Obtenha uma licença completa para remover esta restrição.",
  "me_hud_display_limit_reached": "Alerta de Parâmetros de Controle Urbano é mostrado por 20 segundos em Modo Teste. Obtenha uma licença completa para remover esta restrição.",
  "er_license_update_needed": "Seu arquivo de licença não é válido para a versão do Modelur que está usando. Digite sua licença e tentaremos atualizá-la!",
  "er_min_su_2014_required": "É necessário o SketchUp 2014 ou posterior para rodar esta versão do Modelur.",
  "ui_request_trial": "Solicite uma Licença de Teste",
  "me_missing_email_address": "Por favor, digite seu endereço de e-mail",
  "ui_enter_email_address": "Seu endereço de e-mail profissional",
  "ui_enter_trial_request_information": "Por favor, conte-nos um pouco sobre você. É importante que a informação seja correta ou não poderá receber uma Licença de Teste, necessária para rodar o Modelur.",
  "ui_switch_to_activation_form": "Mude para o formulário de ativação do Modelur",
  "me_enter_valid_email_address": "Por favor, informe um endereço de e-mail válido",
  "me_trial_license_key_sent": "A Licença de Teste será enviada para o seu e-mail <u>dentro de 3 minutos</u>.<br><br>Se não estiver na sua caixa de entrada, verifique no spam. Caso não receba o e-mail dentro de 3 minutos entre em contato conosco.",
  "ui_or": "ou",
  "er_trial_already_used": "Seu período de 21 dias de teste terminou. Modelur não pode rodar em modo teste grátis mais de uma vez. Se desejar continuar usando Modelur, obtenha uma licença válida.",
  "er_unknown_license_error": "Um erro desconhecido relativo à Licença ocorreu. Contate o suporte por meio de support@modelur.com.",
  "er_ip_outside_allowed_range": "O endereço de IP do seu computador está fora do alcance permitido.",
  "er_unable_to_create_new_reservation": "Não foi possível fazer nova reserva de uso. Tente novamente mais tarde. Se o problema persistir contate o suporte pelo support@modelur.com.",
  "er_unable_to_search_for_token": "Não foi possível procurar reservas de uso. Tente novamente mais tarde. Se o problema persistir contate o suporte pelo support@modelur.com.",
  "er_unable_to_create_new_reservation_under_token": "Não foi possível fazer nova reserva de uso relativa a esta licença. Tente novamente mais tarde. Se o problema persistir contate o suporte pelo support@modelur.com.",
  "me_license_seat_released": "O seu uso da licença flutuante do Modelur foi liberado e pode agora ser usado por outra pessoa.<br><br>Se desejar continuar a usar o Modelur, reinicie o programa.",
  "ui_release_network_license": "Liberar Licença Flutuante",
  "ui_release_network_license_details": "Por favor, clique neste botão para liberar o uso da Licença Flutuante do Modelur para outra pessoa da sua equipe.",
  "ui_could_not_prepare_lic_data": "Modelur não conseguiu preparar automaticamente os dados necessários para criar o seu arquivo de licença. Por favor, crie o seu arquivo de licença seguindo as instruções na Janela de Ativação do Modelur, a qual aparecerá tão logo você feche esta caixa de diálogo. Após fazer isso, reinicie o SketchUp e o Modelur.",
  "ui_whole_plot_data": "Dados sobre o Lote Inteiro",
  "ui_land_use_data": "Dados sobre o Uso do Solo",
  "ui_simple_buildings_data": "Dados sobre Edifícios Simples",
  "ui_mixed_use_buildings_data": "Dados sobre Edifícios Complexos",
  "ui_could_not_export_ucvs": "Modelur não conseguiu exportar dados para o arquivo especificado porque ele está sendo usado por outro aplicativo. Por favor, dê outro nome ao arquivo e tente exportá-lo novamente.",
  "ui_please_wait_while_initializing": "Por favor, espere enquanto Modelur se prepara para iniciar.",
  "ui_first_name": "Nome",
  "ui_last_name": "Sobrenome",
  "ui_additional_parameters": "Parâmetros Adicionais",
  "er_construction_date_too_low": "A data de construção deve ser anterior à data de demolição. Ajustar para a data de demolição -1.",
  "er_demolition_date_too_low": "A data de demolição deve ser posterior à data de construção. Ajustar para a data de construção +1.",
  "ui_land_use_of_CB": "Exportar também informação sobre o Uso do Solo de Edifícios Complexos",
  "ui_parts_of_CB": "Exportar também Edifícios que formam parte de Edifícios Complexos",
  "ui_parking_area_deficit": "Déficit de Área de Estacionamento",
  "me_newer_version_of_modelur_required": "Este arquivo foi criado com uma versão mais recente do Modelur. Por favor, visite o nosso site para obter o instalador mais recente e atualizar o Modelur. O modelo será reiniciado para que seja possível criar um novo modelo do Modelur desde zero. Caso necessite o modelo apenas para visualização, reinicie o SketchUp e abra o arquivo sem inicializar o Modelur.",
  "er_something_wrong_with_Modelur_installation": "Algo está errado com a sua instalação do Modelur. Por favor, instale o programa novamente seguindo <a href=\"https://modelur.github.io/docs/getting-started/#installation-problems\">este guia</a>.",
  "ui_urban_control_data_table": "Modelur - Tabela de Dados de Controle Urbano",
  "ui_complex_buildings_land_uses": "Usos do Solo para Edifícios Complexos",
  "ui_complex_buildings_parts": "Partes de Edifícios Complexos",
  "ui_update_data": "Atualizar Dados",
  "ui_license_limit_reached": "O limite da licença foi atingido",
  "ui_env_rg_lic_path_missing": "Modelur não conseguiu determinar automaticamente a localização da sua licença.<br><br>Por favor, siga <a type=\"link\" style=\"color:RoyalBlue\" onclick=\"modelur.engine.triggerAction('trg_env_rg_lic_path_missing');\">este guia</a> antes de ativar a sua cópia do Modelur.<br><br>Este é um processo que deve ser feito apenas uma vez antes de ativar o Modelur. Depois de estabelecer o caminho da licença você pode continuar com a ativação da sua cópia do Modelur.",
  "ui_set_license_path": "Definir o caminho da Licença do Modelur",
  "ui_license_path": "Caminho da Licença:",
  "ui_license_path_does_not_exist": "O caminho indicado para a licença não existe. Quer tentar novamente?",
  "ui_license_path_contains_nonascii": "O caminho indicado para a licença contém caracteres inválidos. Quer tentar novamente?",
  "ui_license_path_points_to_wrong_location": "O caminho indicado para a licença não leva à localização correta. O caminho deve levar ao diretório do Modelur dentro da pasta Appdata. Quer tentar novamente?",
  "ui_license_path_properly_set": "O caminho indicado para a licença não está definido adequadamente. Por favor, informe o número da sua licença!",
  "ui_gfa_per_lu": "Área Construída Bruta por tipo de Uso do Solo",
  "ui_show_detailed_license_info": "Mostrar detalhes da sua licença (número, data de validade, etc.)",
  "ui_license_type": "Tipo de Licença",
  "ui_set_proxy_server": "Habilitar/Desabilitar o Servidor de Proxy",
  "ui_proxy_tooltip": "Caso você esteja usando um servidor de proxy, Modelur pode não conseguir ser validado online. Se este for o caso, por favor use esta opção para definir proxy como escolha. Isso exige que o SketchUp seja reiniciado.",
  "ui_enable_proxy": "Você gostaria de habilitar o Modelur para ser usado com um servidor de proxy?",
  "ui_proxy_enabled_restart_sketchup": "Validação por meio de um  servidor de proxy habilitada. Para essa mudança ter efeito, é preciso reiniciar o SketchUp e Modelur. Gostaria de fechar o SketchUp agora?",
  "ui_proxy_disabled_restart_sketchup": "Validação por meio de um  servidor de proxy desabilitada. Para essa mudança ter efeito, é preciso reiniciar o SketchUp e Modelur. Gostaria de fechar o SketchUp agora?",
  "ui_no_proxy_change": "Nenhuma mudança foi feita em relação aos ajustes do servidor de proxy.",
  "me_can_not_create_city_block": "Não é possível criar um novo Quarteirão dentro de outro Grupo. Vá para o nível superior do seu modelo .skp e crie o Quarteirão lá.",
  "me_no_ents_selected_to_create_city_block": "Para criar Um Quarteirão, você precisa criar e selecionar pelo menos uma Face ou contorno planar fechado (Edge Loop) que representará o novo Quarteirão. <br> <br> Como nenhum objeto foi selecionado, Modelur agora ativará a ferramenta Linha (Line) e criará um novo Quarteirão depois de criar um contorno planar fechado. <br> <br> Caso você não queira criar um Quarteirão usando a ferramenta Linha, selecione sua ferramenta preferida e desenhe uma Face ou contorno planar fechado, selecione-o e clique no botão Criar Quarteirão novamente.",
  "ui_draw_closed_edge_loop": "Desenhe um contorno planar fechado plano a partir do qual Modelur criará um novo Quarteirão. Você pode cancelar o processo de criação de um novo Quarteirão selecionando qualquer outra ferramenta SketchUp.",
  "ui_true": "Verdadeiro",
  "ui_false": "Falso",
  "ui_city_block_limits": "Limites do Quarteirão",
  "ui_city_blocks_data": "Dados dos Quarteirões",
  "ui_land_uses": "Usos do Solo",
  "ui_complex_buildings": "Edifícios Complexos (Uso Misto)",
  "ui_parametric_maps_enabled_restart_sketchup": "Mapas Paramétricos foram habilitados. Para esta mudança se efetivar, é preciso reiniciar o SketchUp e abrir o Modelur. Quer fechar o SketchUp agora?",
  "ui_parametric_maps_disabled_restart_sketchup": "Mapas Paramétricos foram desabilitados. Para esta mudança se efetivar, é preciso reiniciar o SketchUp e abrir o Modelur. Quer fechar o SketchUp agora?",
  "ui_city_block_id": "Identificação (ID) do Quarteirão",
  "me_city_blocks_limit_reached_3": "Usando a Licença de Teste é possível criar até 3 Quarteirões. Obtenha uma licença completa para remover essa restrição.",
  "me_city_blocks_limit_reached_5": "Usando a Licença de Estudante ou Acadêmica é possível criar até 5 Quarteirões. Obtenha uma licença completa para remover essa restrição.",
  "ui_green_area_deficit": "Déficit de Área Verde",
  "ui_sync_city_block_params": "Sincronizar Parâmetros dos Quarteirões",
  "ui_sync_city_block_params_description": "Ferramenta de Ativação da Sincronização dos Parâmetros dos Quarteirões. Use Shift para adicionar/remover Quarteirões na/da seleção ou use Ctrl/Cmd para inserir parâmetros em um único Quarteirão.",
  "ui_pick_source_city_block": "Selecione o Quarteirão a ser usado como fonte de informações",
  "ui_add_or_remove_city_block_selection": "Adicionar/remover Quarteirão na/da seleção",
  "ui_transfer_city_block_parameters": "Transfira os Parâmetros do Quarteirão selecionado para este Quarteirão",
  "ui_divide": "/",
  "ui_storey_heights": "Altura dos pavimentos (andares)",
  "ui_building_areas": "Áreas dos edifícios ",
  "ui_change_currency_symbol": "Mudar símbolo da moeda",
  "ui_linkedin_or_website_url": "LinkedIn / Página da Empresa",
  "ui_phone_or_skype": "Número de telefone ou contato do Skype",
  "ui_architect": "Arquiteto ",
  "ui_urban_designer": "Projetista Urbano (Urban Designer)",
  "ui_urban_planner": "Planejador Urbano",
  "ui_municipality_official": "Funcionário Público Municipal",
  "ui_developer": "Empreendedor",
  "ui_consultant": "Consultor",
  "ui_educator": "Educador",
  "ui_student": "Estudante",
  "ui_job_role": "Cargo ou Função",
  "me_select_job_role": "Por favor, selecione o seu cargo ou função",
  "me_missing_last_name": "Por favor, insira o seu sobrenome.",
  "me_missing_social_contact": "Por favor, insira o seu contato do LinkedIn ou o endereço (URL) da página da sua empresa",
  "ui_word_of_mouth": "Por comentário boca a boca",
  "ui_google_search": "Busca no Google",
  "ui_blog": "Blog",
  "ui_online_adds": "Anúncio na Internet",
  "ui_social_network": "Rede social",
  "ui_how_did_you_learn_about_us": "Como ficou sabendo sobre nós?",
  "ui_short_job_description": "Descrição resumida do seu cargo ou função",
  "ui_default_land_use_assigned": "Algumas entidades copiadas contém Usos do Solo que não existem neste modelo. Para prevenir erros, Modelur atribuiu o Uso do Solo padrão a elas.",
  "ui_store_lu_specs": "Salvar Usos do Solo",
  "ui_store_lu_specs_statusbar": "Salvar todos os Usos do Solo no modelo SKP atual para abri-los em um novo modelo ou se desejar copiar Edifícios de um modelo para outro.",
  "ui_not_windows": "Não foi possível abrir o Excel porque o sistema operacional em uso não é Windows",
  "ui_import_lu_specs": "Importar Usos do Solo",
  "ui_import_lu_specs_statusbar": "Importar Usos do Solo salvos anteriormente.",
  "ui_update_exiting_lu_values": "Quer atualizar os Parâmetros de Uso do Solo existentes, assim como os Requisitos mínimos?",
  "me_select_at_least_one_building": "Por favor, selecione pelo menos um Edifício Modelur",
  "ui_GFA_sum_per_LU": "Soma da Área Bruta Construída por Uso do Solo",
  "ui_NFA_sum_per_LU": "Soma da Área Líquida Construída por Uso do Solo",
  "me_undo_called_after_init": "Você optou por Desfazer (Undo) logo após inicializar o Modelur. <br> <br> Se quiser usar o Modelur, certifique-se de reinicializá-lo.",
  "ui_select_city_blocks_buildings": "Selecione os Edifícios do Quarteirão",
  "ui_percent_of_GFA": "% da ärea Bruta Construída",
  "ui_unoffical_language": "Idioma não-oficial",
  "ui_confirm_switching_to_unofficial_language": "Você está mudando para um idioma não oficial com suporte da comunidade, que pode estar sem traduções e / ou usar terminologia não verificada. <br> <br> Deseja continuar?",
  "ui_agree_with_terms_and_conditions": "Confirmo que li e concordo com os <a href=\"https://modelur.com/legal/terms-and-conditions\"> Termos e Condições </a> e com a <a href = \"https: // modelur .eu / legal / privacy-policy \"> Política de privacidade </a>",
  "me_accept_eula": "Confirme que leu e concorda com os nossos Termos e Condições e a Política de Privacidade.",
  "ui_agree_with_trial_terms_and_conditions": "Ao clicar no botão ENVIAR PEDIDO abaixo, reconheço que li e concordo com os <a href=\"https://modelur.com/legal/trial-terms-and-conditions\"> Termos de solicitação de teste </a> e a <a href=\"https://modelur.com/legal/privacy-policy\"> Política de Privacidade </a>",
  "er_uid_errors_found": "Alguns edifícios não tinham identificador exclusivo (UID). Modelur os substituiu por novos. Se você estiver usando dados exportados em CSV com este modelo, certifique-se de atualizá-lo.",
  "ui_number_of_simple_buildings": "Número de Edifícios (Simples)",
  "ui_select_buildings_by_land_use": "Selecione Edifícios pelo Uso do Solo",
  "ui_select_buildings_by_land_use_tooltip": "Filtre a seleção atual de edifícios para o uso do solo selecionado. Se nenhum edifício for selecionado, todos os edifícios do uso do solo selecionado serão adicionados.",
  "ui_select_or_filter_buildings_to_land_use": "Selecionar ou filtrar Edifícios por Uso do Solo",
  "ui_no_buildings_in_model": "Não existem Edifícios no modelo",
  "ui_select_city_blocks_by_land_use": "Selecione Quarteirões por Uso do Solo",
  "ui_select_city_blocks_by_land_use_tooltip": "Filtre a seleção atual de Quarteirões pelo Uso do Solo selecionado. Se nenhum Quarteirão for selecionado, todos os Quarteirões do Uso do Solo selecionado serão adicionados.",
  "ui_select_or_filter_city_blocks_to_land_use": "Selecionar ou filtrar Quarteirões por Uso do Solo",
  "ui_no_city_blocks_in_model": "Não existem Quarteirões no modelo",
  "ui_no_buildings_of_land_use": "Não há Edifícios (visíveis) do Uso do Solo selecionado no modelo. A seleção atual será mantida.",
  "ui_subscription_valid_until": "Sua Assinatura é válida até",
  "ui_license_mismatch": "Parece que Modelur não conseguiu configurar automaticamente sua licença para este computador. Agora abriremos uma nova janela com instruções sobre como obter seu arquivo de licença manualmente. Se precisar de mais assistência, pedimos que entre em contato conosco pelo e-mail support@modelur.com.",
  "ui_rgloader_problem_text": "Por algum motivo, o Modelur não conseguiu carregar neste computador. Faça uma captura de tela desta mensagem e envie para support@modelur.com:",
  "ui_form_factor_calculation_failed": "Modelur não foi capaz de calcular o Coeficiente Formal do Edifício selecionado. Envie o Edifício em questão para support@modelur.com para que possamos inspecioná-lo e melhorar as versões futuras do Modelur.",
  "ui_form_factor_calculation": "Cálculo do Coeficiente Formal",
  "ui_form_factor": "Perda de Calor do Coeficiente Formal",
  "ui_surface_to_volume_factor": "Superfície do Coeficiente Volumétrico",
  "ui_regenerate_model": "Regenerar e Recalcular o modelo",
  "me_select_default_shape_building": "O Edifício Modelur não pode ser criado. <br> <br> Você precisa criar uma Face horizontal ou um contorno fechado e selecioná-lo antes de clicar no botão Criar Edifícios. <br> <br> Para criar um edifício padrão quando nenhum objeto estiver selecionado, defina a forma da planta baixa em Opções> Configuração Padrão de Edifício.",
  "me_select_default_shape_complex_building": "Não é possível criar um Edifício Complexo. <br> <br> Você precisa selecionar pelo menos dois edifícios ou criar uma face horizontal ou um contorno fechado e selecioná-lo antes de clicar no botão Criar Edifícios Complexos. <br> <br> Para criar um Edifício Complexo padrão quando nenhum objeto estiver selecionado, defina sua forma de planta baixa em Opções> Configuração Padrão de Edifício.",
  "ui_cant_add_edit_building_in_view_mode": "Você não pode adicionar ou editar Edifícios Modelur enquanto estiver no modo Visualização.",
  "ui_cant_add_edit_city_block_in_view_mode": "Você não pode adicionar ou editar Quarteirões enquanto estiver no modo Visualização.",
  "ui_cant_add_edit_land_use_in_view_mode": "Você não pode adicionar ou editar Usos do Solo enquanto estiver no modo Visualização.",
  "ui_gis_file_not_in_wgs84": "Parece que seu arquivo GIS não foi projetado em WGS84. Certifique-se de convertê-lo antes de importar seus dados para o SketchUp.",
  "ui_wgs84_not_confirmed": "Modelur não conseguiu determinar seu sistema de coordenadas de arquivo GIS. Se você tiver certeza de que é WGS84, clique em OK para continuar. Caso contrário, verifique antes de importar seus dados.",
  "ui_couldnt_read_GIS_file": "Modelur encontrou alguns erros ao ler seu arquivo GIS. Certifique-se de que ele esteja armazenado no formato de arquivo SHP ou GeoJson e que você esteja usando o sistema de coordenadas WGS84 com graus decimais como unidades de medida. Abaixo está o erro ao tentar carregar seus dados GIS que podem ajudar a equipe Modelur a solucionar seu problema:",
  "ui_couldnt_find_any_features_in_GIS_file": "Parece que seu arquivo é válido, mas ele não contém formas a partir das quais o Modelur possa criar entidades do SketchUp, como Edifícios ou Quarteirões. Certifique-se de adicionar alguns dados ao seu arquivo GIS.",
  "ui_GIS_distance_more_than_1km": "Parece que o arquivo que você está tentando carregar está centralizado a mais de 2 quilômetros da origem do modelo atual (** DISTANCE_IN_UNITS **). Para um melhor alinhamento, você pode querer mover a origem do seu modelo para mais perto do centro do arquivo GIS que você está importando.",
  "ui_GIS_data_invalid": "Parece que alguns dos dados de atributos que você está tentando importar são inválidos. Estes são os erros que encontramos ao carregar os dados (e sua contagem):",
  "ui_Modelur_will_continue_with_import": "Modelur continuará importando seus dados, mas os objetos afetados não serão importados. Se você não conseguir corrigir os dados que está tentando importar, entre em contato com o suporte da Modelur.",
  "ui_fixed_num_of_storeys_when_GIS_import": "Alguns dos edifícios Modelur importados tinham 0 andares atribuídos a eles. Para evitar falhas de importação, Modelur os fez com 1 andar de altura.",
  "ui_some_GIS_buildings_not_created": "Modelur não foi capaz de gerar todos os edifícios especificados em seu arquivo GIS. Para nos ajudar a obter seus dados GIS no SketchUp / Modelur, faça o seguinte: 1. Abra o console Ruby (no menu Janela), 2. Execute o mesmo GIS Import novamente, 3. Copie / cole o erro que você vê no console Ruby para e-mail e envie para support@modelur.com.",
  "ui_open_gis_merge": "Importar dados GIS",
  "i18n_gis_merge_tool": "Modelur - Importação de Dados GIS",
  "i18n_file_path": "Caminho do arquivo",
  "i18n_browse": "Procurar",
  "i18n_trees": "Árvores",
  "i18n_please_wait": "Por favor, aguarde…",
  "i18n_from": "De",
  "i18n_to": "Para",
  "i18n_source_settings": "Ajustes de origem",
  "i18n_import_gis_layer": "Importação de camada GIS",
  "i18n_gis_data_source": "Origem de Dados GIS",
  "i18n_import_gis_data_as": "Importar dados GIS como…",
  "i18n_select_gis_column": "Por favor, selecione a coluna GIS",
  "i18n_map_gis_attributes_to_modelur_parameters": "Mapear atributos GIS para parâmetros Modelur",
  "i18n_map_gis_land_uses_to_modelur_land_uses": "Mapear Usos do Solo GIS para Usos do Solo Modelur",
  "i18n_gis_columns": "Colunas GIS",
  "i18n_modelur_names": "Nomes Modelur",
  "i18n_number_of_storeys": "Número de Andares",
  "i18n_trunk_diameter": "Diâmetro do Tronco",
  "i18n_plant_year": "Ano de Plantação",
  "i18n_bin_type": "Tipo de Lata de Lixo",
  "i18n_bin_diameter": "Diâmetro da  Lata de Lixo",
  "i18n_bin_volume": "Volume da Lata de Lixo",
  "i18n_create_non_mapped_land_uses": "Criar Usos do Solo não mapeados",
  "i18n_confirmation": "Confirmação",
  "i18n_gis_empty_file": "O arquivo que você está tentando carregar parece estar vazio!",
  "i18n_gis_empty_attribute_name": "Parece que você está tentando carregar um arquivo GIS que contém atributos com nomes vazios, que o Modelur não suporta, então eles serão ignorados. Se você quiser usá-los, altere seus nomes. Se o uso de nomes de atributos vazios estiver incluído em seu fluxo de trabalho, entre em contato com o suporte da Modelur com sua solicitação e explicação, para que possamos entender melhor suas necessidades e melhorar o Modelur.",
  "i18n_gis_extras": "Extras GIS",
  "i18n_import_as_rail": "Importar como Trilhos",
  "i18n_max_land_uses": "Número máximo de Usos do Solo mapeados",
  "i18n_gis_distance_check": "Distância máxima da origem antes do aviso",
  "i18n_overload_land_use_requirements": "Sobrecarregar os usos do solo de MJSON",
  "i18n_check_mjson_modified_outside_modelur": "Verifique se o arquivo de mapeamento foi modificado fora do Modelur",
  "i18n_warn_on_offset_conflict": "Avisar sobre conflito de equidistância (offset)",
  "i18n_import_mjson_automatically": "Importar mapeamento automaticamente se disponível",
  "i18n_gis_non_mapped_parameter_values": "Parâmetros de GIS não mapeados",
  "i18n_update_land_use_values": "Atualizar valores de Usos do Solo",
  "i18n_skip_use_existing": "Desconsiderar (usar existente)",
  "i18n_overload_update_existing": "Sobrecarregar (atualizar existente)",
  "i18n_create_new_add_land_use": "Criar novo (adicionar Uso do Solo com algum outro nome)",
  "i18n_mapping_import_options": "Mapear opções de importação",
  "i18n_clear_use_imported_mapping": "Limpar, usar apenas mapeamento importado",
  "i18n_merge_keep_imported_mapping": "Mesclar, manter mapeamento importado para campos sobrepostos",
  "i18n_merge_keep_current_mapping": "Mesclar, manter mapeamento atual para campos sobrepostos",
  "i18n_import_wrong_type_of_data": "Você está tentando importar o tipo errado de dados!",
  "i18n_load_gis_file_before_mapping": "Você precisa carregar o arquivo GIS antes de importar o mapeamento!",
  "i18n_mapping_settings_newer_version": "Parece que as configurações carregadas de atributos de mapeamento  do Modelur GIS foram criadas com uma versão mais recente do Modelur. Se você quiser usar o mapeamento automático, atualize o Modelur primeiro.",
  "i18n_map_too_many_land_uses": "Você está tentando mapear muitos usos do solo! Escolha outro atributo de origem ou altere o número máximo de usos do solo mapeados nas preferências do GIS.",
  "i18n_mjson_overwrite": "Já existe um arquivo com configurações para este arquivo GIS. Você deseja sobrescrever isso?",
  "i18n_offset_conflict": "Sua equidistância (offset) atual do Modelur GIS difere da importada.",
  "i18n_mjson_already_exist": "O arquivo com configuração de mapeamento para este arquivo GIS já existe e será sobrescrito.",
  "i18n_unsupported_feature_type": "Modelur não oferece suporte ao tipo de recurso especificado em seu arquivo. Use outro tipo de recurso. <br> <br> Modelur atualmente oferece suporte aos seguintes tipos de recurso: <li> Multi-Polígono (MultiPolygon), </li> <li> Polígono (Polygon), </li> <li> Polilinha (PolyLine), </li> <li> Sequência de Linhas (LineString) e </li> <li> Ponto (Point) </li>",
  "i18n_GIS_file_too_far": "O arquivo que você está tentando carregar e a origem do modelo aberto estão muito distantes. Considere mover a origem do seu modelo para mais perto do centro do arquivo GIS ou aumente o valor de <i> Distância máxima da Origem antes de avisar </i> nas Preferências do GIS.",
  "i18n_gis_coordinate_system_not_determined": "Modelur não conseguiu determinar seu sistema de coordenadas de arquivo GIS. Certifique-se de usar o sistema de coordenadas WGS84.",
  "i18n_couldnt_read_GIS_file": "Modelur encontrou alguns erros ao ler seu arquivo GIS. Certifique-se de que ele esteja armazenado no formato de arquivo SHP ou GeoJson e que você esteja usando o sistema de coordenadas WGS84 com graus decimais como unidades de medida.",
  "i18n_GIS_data_invalid_modelur_will_continue": "Parece que alguns dos dados de atributos que você está tentando importar são inválidos. Modelur continuará importando seus dados, mas os objetos afetados não serão importados. Se você não conseguir corrigir os dados que está tentando importar, entre em contato com o suporte da Modelur.",
  "i18n_mjson_saved": "O mapeamento foi salvo no arquivo MJSON na pasta do arquivo SHP ou GEOJSON importado.",
  "i18n_tree_species_mapping": "Mapeamentp de espécies de árvore",
  "i18n_color_mapping": "Mapeamento de cores",
  "i18n_split_modelur_building": "Dividir Edifício Modelur",
  "i18n_activate_split_tool": "Ative a ferramenta Dividir Edifício Modelur. Divida o edifício Modelur em duas partes, escolhendo pontos de corte.",
  "i18n_save_file_before_excel": "Para começar a enviar seus dados Modelur diretamente para o Excel, seu modelo SKP precisa ser salvo primeiro. Você gostaria de salvar seu arquivo agora?",
  "i18n_complex_building_name": "Nome do Edifício Complexo",
  "ui_no_OSM_buildings_available": "Parece que o OpenStreetMap não é capaz de fornecer nenhum edifício para a região selecionada.",
  "ui_OSM_out_of_tiles": "O terreno selecionado está muito longe da origem do modelo para importar edifícios do OpenStreetMap. Mova a origem para mais perto do objeto de terreno selecionado.",
  "ui_OSM_import_not_available": "O download de dados do OpenStreetMap não está disponível no momento. Tente novamente mais tarde ou entre em contato conosco através de support@modelur.com.",
  "ui_OSM_not_licensed": "Sua licença Modelur não oferece importação de dados do OpenStreetMap. Entre em contato conosco <a type=\"link\" style=\"color:RoyalBlue\" onclick=\"modelur.engine.triggerAction('trg_request_osm_access');\"> aqui </a> se estiver interessado em usar essa funcionalidade.",
  "ui_OSM_terms": "O uso da importação de dados OpenStreetMap está sujeito aos Termos de Uso do OSM. Para usá-lo, confirme se você concorda com eles. <br> <br> Além disso, observe que os dados do OpenStreetMap não são verificados e às vezes podem não refletir as alturas reais dos edifícios. Nesses casos, Modelur usará sua altura de construção padrão. <br> <br> Eu li e concordo com <a type = \"link\" style = \"color: RoyalBlue\" onclick = \"modelur.engine.triggerAction ('trg_osm_terms_of_use '); \"> Termos de Uso do OpenStreetMap </a>.",
  "er_send_to_excel_failed": "O envio de dados para o Excel falhou!",
  "ui_city_blocks_land_uses": "Usos do Solo dos Quarteirões",
  "wr_some_GIS_city_blocks_not_created": "Modelur não foi capaz de gerar todos os Quarteirões especificados em seu arquivo GIS. Para nos ajudar a obter seus dados GIS no SketchUp / Modelur, faça o seguinte: 1. Abra o console Ruby (no menu Janela), 2. Execute a mesmo Importação de GIS (GIS Import) novamente, 3. Copie / cole o erro que você vê no console Ruby para e-mail e envie para support@modelur.com.",
  "default_building_height": "Altura Padrão dos Edifícios ",
  "default_number_of_storeys": "Número Padrão de Andares",
  "default_built_area": "Área Construída Padrão",
  "default_GFA": "Área Construída Bruta Padrão",
  "default_first_storey_height": "Altura Padrão do Primeiro Andar",
  "default_other_storey_height": "Altura Padrão dos demais Andares",
  "achieved_GFA": "Área Construída Bruta Resultante",
  "achieved_built_area": "Área Construída Resultante",
  "achieved_FAR": "Percentual de Área Construída Bruta Resultante",
  "achieved_coverage": "Taxa de Ocupação do Solo Resultante",
  "modelur_danish_package": "Versão Dinamarquesa do Modelur",
  "show_document_link": "Mostrar o Link do Documento",
  "show_related_pdf": "Mostrar o PDF associado",
  "import_Building_from_niras_wfs": "Importar Volumetria de Zoneamento de NIRAS WFS",
  "import_CityBlock_from_niras_wfs": "Importar Quarteirões de NIRAS WFS",
  "import_LocalPlan_from_niras_wfs": "Importar mapas do local de NIRAS WFS",
  "import_ExistingBuilding_from_niras_wfs": "Importar Volumetria dos Edifícios existentes de NIRAS WFS",
  "import_ExistingModelurBuilding_from_niras_wfs": "Importar Edifícios Modelur existentes de NIRAS WFS",
  "import_CadastrelMap_from_niras_wfs": "Importar Mapa Cadastral de NIRAS WFS",
  "import_trees_from_niras_wfs": "Importar árvores de NIRAS WFS",
  "import_wms_tiles_from_niras": "Importar Ortoimagens de NIRAS WFS",
  "import_Building": "Importar Volumetria de Zoneamento",
  "import_BuildingDraft": "Importar Envelopes de Zoneamento (rascunho)",
  "import_CityBlock": "Importar Quarteirões",
  "import_CityBlockDraft": "Importar Quarteirões (rascunho)",
  "import_LocalPlan": "Importar Mapas Locais",
  "import_LocalPlanDraft": "Importar Mapas Locais (rascunho)",
  "import_ExistingBuilding": "Importar Volumetria de Edifícios existentes",
  "import_ExistingModelurBuilding": "Importar Edifícios Modelur existentes",
  "import_CadastrelMap": "Importar Mapa Cadastral",
  "import_trees": "Importar Árvores",
  "import_wms_tiles": "Importar Ortoimagens",
  "danish_package_geolocated_warning": "A versão Dinamarquesa do Modelur só funciona quando o seu modelo é georreferenciado para a Dinamarca. Certifique-se de localizá-lo corretamente no SketchUp por meio do menu Arquivo> Geo-localização> Adicionar local …",
  "danish_package_modelur_warning": "Para usar versão Dinamarquesa do Modelur, certifique-se de inicializar o Modelur primeiro.",
  "show_gis_info": "Mostrar Propriedades GIS",
  "danish_package_import_failed": "Modelur encontrou erros ao ler os dados.",
  "i18n_generator_options": "Opções do Gerador",
  "i18n_city_block_setback": "Recuo do Quarteirão",
  "i18n_massing_strategy": "Estratégia Volumétrica",
  "i18n_max_heights_min_site_coverage": "Altura Máxima / Mínima Ocupação do Solo",
  "i18n_min_heights_max_site_coverage": "Altura Mínima / Máxima Ocupação do Solo",
  "i18n_approximate_ratio": "Proporção Aproximada",
  "ui_modelur_massing_generator": "Modelur - Gerador Volumétrico",
  "i18_massing_generator_options": "Opções do Gerador Volumétrico",
  "i18n_land_use_no_1": "Uso do Solo #1:",
  "i18n_land_use_no_2": "Uso do Solo #2:",
  "i18n_land_use_no_3": "Uso do Solo #3:",
  "i18n_building_storey_gfa": "Áreas Construídas Brutas por Andar",
  "i18n_import_all": "Importar todos os dados disponíveis",
  "i18n_import_public": "Importar os dados disponíveis publicamente",
  "i18n_import_draft": "Importar os dados preliminares",
  "i18n_import_all_public": "Importar todos os dados disponíveis publicamente",
  "i18n_import_all_draft": "Importar todos os dados preliminares",
  "i18n_presentation_mode": "Modo de Apresentação",
  "i18n_work_mode": "Modo de Trabalho",
  "i18n_show_error_info": "Quer ver os detalhes desse erro?",
  "i18n_please_select_face_to_import_data": "Selecione pelo menos uma superfície ou grupo para importar dados",
  "i18n_region_name": "Nome da região",
  "i18n_municipality_name": "Nome do município",
  "i18n_set_location": "Localizar",
  "i18n_choose_danish_commune": "Escolha o município e geo-localize este modelo",
  "i18n_please_select_municipality": "Selecione o município",
  "i18n_model_is_geolocated": "Este modelo já está geo-localizado! Se quiser definir a localização para o município selecionado, limpe a geolocalização do modelo Sketchup.",
  "i18n_toggle_terrain": "Liga e desliga (toggle) a colocação de edifícios no terreno."
}